ovp_platform/platform_4_tlb/platform.vcd
$version
Imperas Tools
$end
$comment merged vcds for all cores $end
$timescale 8ns $end
$scope module platform $end
 $var wire 1 ! cpu0_7_for_loop_100000_0 $end
 $var wire 1 " cpu0_9_for_loop_80000_0 $end
 $var wire 1 # cpu0_0_None $end
 $var wire 1 $ cpu0_11_uC/OS-II_Idle $end
 $var wire 1 % cpu0_6_for_loop_50000_50000 $end
 $var wire 1 & cpu0_10_uC/OS-II_Stat $end
 $var wire 1 ' cpu0_8_for_loop_90000_0 $end
 $var wire 1 ( cpu1_9_uC/OS-II_Idle $end
 $var wire 1 ) cpu1_0_None $end
 $var wire 1 * cpu1_5_for_loop_100000_0 $end
 $var wire 1 + cpu1_8_uC/OS-II_Stat $end
 $var wire 1 , cpu1_6_for_loop_90000_0 $end
 $var wire 1 - cpu1_7_for_loop_60000_0 $end
 $var wire 1 . cpu2_4_for_loop_80000_0 $end
 $var wire 1 / cpu2_6_uC/OS-II_Stat $end
 $var wire 1 0 cpu2_5_for_loop_70000_0 $end
 $var wire 1 1 cpu2_7_uC/OS-II_Idle $end
 $var wire 1 2 cpu2_0_None $end
 $var wire 1 3 cpu3_0_None $end
 $var wire 1 4 cpu3_7_uC/OS-II_Idle $end
 $var wire 1 5 cpu3_5_for_loop_60000_0 $end
 $var wire 1 6 cpu3_4_for_loop_70000_0 $end
 $var wire 1 7 cpu3_6_uC/OS-II_Stat $end
 $var wire 1 8 cpum_3_dma $end
 $var wire 1 9 cpum_0_None $end
 $var wire 1 : cpum_5_uC/OS-II_Idle $end
 $var wire 1 ; cpum_4_uC/OS-II_Stat $end
$upscope $end
$enddefinitions $end
#0
x&
x$
x"
x%
x'
x!
x#
x(
x*
x+
x-
x,
x)
x/
x.
x0
x1
x2
x5
x7
x4
x6
x3
x8
x;
x:
x9
#113566
1.
z2
16
z3
#114070
10
z.
#114100
15
z6
#114533
1*
z)
#114602
1/
z0
#114647
17
z5
#114976
1,
z*
#115157
11
z/
#115202
14
z7
#115419
1%
z#
#115467
1-
z,
#116014
1+
z-
#116569
1(
z+
#1212244
1!
z%
#1212674
1'
z!
#1213135
1"
z'
#1213652
1&
z"
#1214207
1$
z&
#7332305
18
z9
#7332571
1;
z8
#7332761
1:
z;
#7350256
18
z:
#7365823
1*
z(
#7365833
1!
z$
#7397122
1.
z1
#7413368
16
z4
#7429236
1:
z8
#8541089
15
z6
#8593559
1%
z!
#8685502
10
z.
#8977172
1,
z*
#9507603
14
z5
#9812691
11
z0
#9813586
18
z:
#9819566
1:
z8
#10149855
1!
z%
#10426130
1-
z,
#10534771
1'
z!
#10535961
18
z:
#10541908
1:
z8
#11392916
1(
z-
#11393633
18
z:
#11399628
1:
z8
#11985106
1"
z'
#11985997
18
z:
#11991950
1:
z8
#13273879
1$
z"
#13274789
18
z:
#13280747
1:
z8
#16725044
18
z:
#16738351
1"
z$
#16738372
1.
z1
#16752135
16
z4
#16765886
1-
z(
#16766064
1:
z8
#17593589
1%
z"
#17732632
1(
z-
#17879812
15
z6
#18026708
10
z.
#18476738
1"
z%
#18599822
18
z:
#18613247
1!
z"
#18613331
1*
z(
#18613625
1:
z8
#18846326
14
z5
#18847411
18
z:
#18854247
1:
z8
#19153897
11
z0
#19154846
18
z:
#19160826
1:
z8
#20223632
1(
z*
#20226426
1"
z!
#20227226
18
z:
#20233173
1:
z8
#20525070
1$
z"
#20526045
18
z:
#20532003
1:
z8
#25090910
1/
z1
#25090921
17
z4
#25090961
1+
z(
#25091648
11
z/
#25091659
14
z7
#25091699
1(
z+
#25968501
1%
z$
#26100135
18
z:
#26113354
1,
z(
#26127105
1.
z1
#26140883
16
z4
#26154741
1:
z8
#27268560
15
z6
#27350861
1'
z%
#27415441
10
z.
#27562753
1-
z,
#28235074
14
z5
#28529539
1(
z-
#28531130
18
z:
#28537125
1:
z8
#28542630
11
z0
#28543606
18
z:
#28549586
1:
z8
#28800288
1"
z'
#28800994
18
z:
#28806947
1:
z8
#29849825
18
z:
#29863247
1!
z"
#29863324
1*
z(
#29863508
1:
z8
#31473625
1(
z*
#31476322
1"
z!
#31477228
18
z:
#31483175
1:
z8
#31703124
1&
z"
#31703902
1$
z&
#31704790
18
z:
#31710748
1:
z8
#32224608
1;
z:
#32224808
1:
z;
#34843507
1%
z$
#35475032
18
z:
#35488353
1.
z1
#35502118
16
z4
#35515887
1-
z(
#35516052
1:
z8
#35762309
1"
z%
#36482633
1(
z-
#36629795
15
z6
#36776689
10
z.
#37051042
1$
z"
#37052286
18
z:
#37058244
1:
z8
#37596309
14
z5
#37597391
18
z:
#37604219
1:
z8
#37903878
11
z0
#37904836
18
z:
#37910816
1:
z8
#41099810
18
z:
#41113319
1!
z$
#41113334
1*
z(
#41113493
1:
z8
#42723635
1(
z*
#42724361
1$
z!
#42725965
18
z:
#42731912
1:
z8
#43218501
1%
z$
#44369752
1$
z%
#44850138
18
z:
#44863338
1,
z(
#44863345
1'
z$
#44877116
1.
z1
#44890868
16
z4
#44904748
1:
z8
#46018545
15
z6
#46165452
10
z.
#46312737
1-
z,
#46313337
1"
z'
#46314752
18
z:
#46320705
1:
z8
#46985059
14
z5
#47279523
1(
z-
#47281125
18
z:
#47287120
1:
z8
#47292641
11
z0
#47293598
18
z:
#47299578
1:
z8
#47602890
1$
z"
#47603549
18
z:
#47609507
1:
z8
#50090919
1/
z1
#50090923
17
z4
#50090958
1+
z(
#50091657
11
z/
#50091661
14
z7
#50091696
1(
z+
#51843501
1%
z$
#52349826
18
z:
#52363327
1*
z(
#52363509
1:
z8
#52676289
1!
z%
#53973628
1(
z*
#54225030
18
z:
#54238357
1.
z1
#54252122
16
z4
#54265888
1-
z(
#54266107
1:
z8
#54287825
1"
z!
#54288455
18
z:
#54294402
1:
z8
#55232634
1(
z-
#55379799
15
z6
#55526693
10
z.
#55576598
1$
z"
#55577292
18
z:
#55583250
1:
z8
#56346313
14
z5
#56347375
18
z:
#56354203
1:
z8
#56593510
1&
z$
#56594248
1$
z&
#56653882
11
z0
#56654840
18
z:
#56660820
1:
z8
#57224597
1;
z:
#57224797
1:
z;
#60093505
1%
z$
#60918600
1$
z%
#63600242
18
z:
#63613334
1!
z$
#63613337
1*
z(
#63640869
1.
z1
#63654620
16
z4
#63668442
1:
z8
#64782297
15
z6
#64929205
10
z.
#65224602
1,
z*
#65225332
1'
z!
#65225949
18
z:
#65231896
1:
z8
#65748811
14
z5
#66056394
11
z0
#66057336
18
z:
#66063316
1:
z8
#66673560
1-
z,
#66674887
1"
z'
#66676004
18
z:
#66681957
1:
z8
#67640346
1(
z-
#67641125
18
z:
#67647120
1:
z8
#67963660
1$
z"
#67964786
18
z:
#67970744
1:
z8
#68343511
1%
z$
#69344006
1$
z%
#72975027
18
z:
#72988365
1"
z$
#72988368
1.
z1
#73002134
16
z4
#73015899
1-
z(
#73016047
1:
z8
#73982645
1(
z-
#74129811
15
z6
#74276704
10
z.
#74277098
1$
z"
#74278550
18
z:
#74284508
1:
z8
#74849818
18
z:
#74863323
1*
z(
#74863327
1!
z$
#74863537
1:
z8
#75096358
17
z5
#75097136
14
z7
#75097403
18
z:
#75104235
1:
z8
#75403910
1/
z0
#75404688
11
z/
#75404855
18
z:
#75410835
1:
z8
#76473569
1+
z*
#76474347
1(
z+
#76474369
1$
z!
#76475953
18
z:
#76481900
1:
z8
#76843508
1%
z$
#78052503
1$
z%
#81593502
1&
z$
#81594240
1$
z&
#82224614
1;
z:
#82224814
1:
z;
#82350149
18
z:
#82363334
1'
z$
#82363358
1,
z(
#82377106
1.
z1
#82390874
16
z4
#82404759
1:
z8
#83518551
15
z6
#83665442
10
z.
#83812757
1-
z,
#83813326
1"
z'
#83814763
18
z:
#83820716
1:
z8
#84779543
1(
z-
#84781133
18
z:
#84787128
1:
z8
#84793586
18
z:
#84799566
1:
z8
#85102879
1$
z"
#85103531
18
z:
#85109489
1:
z8
#85468504
1%
z$
#86099830
18
z:
#86113328
1*
z(
#86113513
1:
z8
#86436176
1!
z%
#88048485
18
z:
