ovp_platform/platform_4_tlb/platform.vcd
$version
Imperas Tools
$end
$comment merged vcds for all cores $end
$timescale 8ns $end
$scope module platform $end
 $var wire 1 ! cpu0_5_uC/OS-II_Idle $end
 $var wire 1 " cpu0_0_None $end
 $var wire 1 # cpu0_3_for_loop_60000_0 $end
 $var wire 1 $ cpu0_4_uC/OS-II_Stat $end
 $var wire 1 % cpu1_4_uC/OS-II_Stat $end
 $var wire 1 & cpu1_3_for_loop_60000_0 $end
 $var wire 1 ' cpu1_0_None $end
 $var wire 1 ( cpu1_5_uC/OS-II_Idle $end
 $var wire 1 ) cpu2_4_for_loop_70000_0 $end
 $var wire 1 * cpu2_6_uC/OS-II_Stat $end
 $var wire 1 + cpu2_5_for_loop_60000_0 $end
 $var wire 1 , cpu2_0_None $end
 $var wire 1 - cpu2_7_uC/OS-II_Idle $end
 $var wire 1 . cpu3_3_for_loop_70000_0 $end
 $var wire 1 / cpu3_5_uC/OS-II_Idle $end
 $var wire 1 0 cpu3_0_None $end
 $var wire 1 1 cpu3_4_uC/OS-II_Stat $end
 $var wire 1 2 cpum_3_dma $end
 $var wire 1 3 cpum_0_None $end
 $var wire 1 4 cpum_5_uC/OS-II_Idle $end
 $var wire 1 5 cpum_4_uC/OS-II_Stat $end
$upscope $end
$enddefinitions $end
#0
x!
x#
x$
x"
x&
x%
x(
x'
x-
x+
x)
x*
x,
x.
x/
x1
x0
x2
x4
x5
x3
#112247
1.
z0
#112249
1&
z'
#112254
1#
z"
#112744
11
z.
#112764
1%
z&
#112769
1$
z#
#113223
1)
z,
#113299
1/
z1
#113319
1(
z%
#113324
1!
z$
#113664
1+
z)
#114166
1*
z+
#114721
1-
z*
#3722714
12
z3
#3722981
15
z2
#3723171
14
z5
#3724880
12
z4
#3740826
1.
z/
#3740827
1)
z-
#3764339
14
z2
#3764584
1#
z!
#3764586
1&
z(
#4730385
1!
z#
#4730387
1(
z&
#4867218
1/
z.
#4868046
1+
z)
#4869783
12
z4
#4875937
14
z2
#5833511
1-
z+
#5834871
12
z4
#5841010
14
z2
#13099884
12
z4
#13113321
1)
z-
1.
z/
#13133338
1#
z!
#13133341
1&
z(
#13133834
14
z2
#14099135
1!
z#
#14099138
1(
z&
#14239709
1/
z.
#14240496
1+
z)
#14242269
12
z4
#14248423
14
z2
#15205961
1-
z+
#15207357
12
z4
#15213496
14
z2
#22474893
12
z4
#22488321
1.
z/
#22488336
1)
z-
#22508336
1&
z(
#22508352
1#
z!
#22508843
14
z2
#23474133
1(
z&
#23474149
1!
z#
#23614709
1/
z.
#23615511
1+
z)
#23617278
12
z4
#23623432
14
z2
#24580976
1-
z+
#24582366
12
z4
#24588505
14
z2
#25090831
1$
z!
#25090834
1%
z(
#25090836
11
z/
#25090865
1*
z-
#25091569
1!
z$
#25091572
1(
z%
#25091574
1/
z1
#25091603
1-
z*
#28599564
15
z4
#28599764
14
z5
#31849889
12
z4
#31863321
1.
z/
#31863326
1)
z-
#31883333
1#
z!
#31883344
1&
z(
#31883839
14
z2
#32849130
1!
z#
#32849141
1(
z&
#32989709
1/
z.
#32990501
1+
z)
#32992274
12
z4
#32998428
14
z2
#33955966
1-
z+
#33957362
12
z4
#33963501
14
z2
#41224898
12
z4
#41238321
1)
z-
#41238327
1.
z/
#41258336
1&
z(
#41258347
1#
z!
#41258848
14
z2
#42365496
1+
z)
#42367283
12
z4
#42373437
14
z2
#43332371
12
z4
