ovp_platform/platform_4_tlb/platform.vcd
$version
Imperas Tools
$end
$comment merged vcds for all cores $end
$timescale 8ns $end
$scope module platform $end
 $var wire 1 ! cpu0_7_for_loop_100000_0 $end
 $var wire 1 " cpu0_9_for_loop_80000_0 $end
 $var wire 1 # cpu0_0_None $end
 $var wire 1 $ cpu0_11_uC/OS-II_Idle $end
 $var wire 1 % cpu0_6_for_loop_50000_50000 $end
 $var wire 1 & cpu0_10_uC/OS-II_Stat $end
 $var wire 1 ' cpu0_8_for_loop_90000_0 $end
 $var wire 1 ( cpu1_9_uC/OS-II_Idle $end
 $var wire 1 ) cpu1_0_None $end
 $var wire 1 * cpu1_5_for_loop_100000_0 $end
 $var wire 1 + cpu1_8_uC/OS-II_Stat $end
 $var wire 1 , cpu1_6_for_loop_90000_0 $end
 $var wire 1 - cpu1_7_for_loop_60000_0 $end
 $var wire 1 . cpu2_4_for_loop_80000_0 $end
 $var wire 1 / cpu2_6_uC/OS-II_Stat $end
 $var wire 1 0 cpu2_5_for_loop_70000_0 $end
 $var wire 1 1 cpu2_7_uC/OS-II_Idle $end
 $var wire 1 2 cpu2_0_None $end
 $var wire 1 3 cpu3_5_for_loop_60000_0 $end
 $var wire 1 4 cpu3_0_None $end
 $var wire 1 5 cpu3_7_uC/OS-II_Idle $end
 $var wire 1 6 cpu3_4_for_loop_70000_0 $end
 $var wire 1 7 cpu3_6_uC/OS-II_Stat $end
 $var wire 1 8 cpum_3_dma $end
 $var wire 1 9 cpum_0_None $end
 $var wire 1 : cpum_5_uC/OS-II_Idle $end
 $var wire 1 ; cpum_4_uC/OS-II_Stat $end
$upscope $end
$enddefinitions $end
#0
x$
x&
x%
x'
x!
x"
x#
x+
x(
x*
x,
x-
x)
x/
x.
x1
x0
x2
x5
x7
x6
x3
x4
x;
x8
x:
x9
#113566
1.
z2
16
z4
#114070
10
z.
#114100
13
z6
#114533
1*
z)
#114602
1/
z0
#114647
17
z3
#114976
1,
z*
#115157
11
z/
#115202
15
z7
#115419
1%
z#
#115467
1-
z,
#116014
1+
z-
#116569
1(
z+
#1212244
1!
z%
#1212674
1'
z!
#1213135
1"
z'
#1213652
1&
z"
#1214207
1$
z&
#7332305
18
z9
#7332571
1;
z8
#7332761
1:
z;
#7350256
18
z:
#7365823
1*
z(
#7365833
1!
z$
#7397122
1.
z1
#7413368
16
z5
#7429236
1:
z8
#8541089
13
z6
#8593559
1%
z!
#8685502
10
z.
#8977172
1,
z*
#9507603
15
z3
#9812691
11
z0
#9813586
18
z:
#9819566
1:
z8
#10149855
1!
z%
#10426130
1-
z,
#10534771
1'
z!
#10535961
18
z:
#10541908
1:
z8
#11392916
1(
z-
#11393633
18
z:
#11399628
1:
z8
#11985106
1"
z'
#11985997
18
z:
#11991950
1:
z8
#13273879
1$
z"
#13274789
18
z:
#13280747
1:
z8
#16725044
18
z:
#16738351
1"
z$
#16738372
1.
z1
#16752135
16
z5
#16765886
1-
z(
#16766064
1:
z8
#17593589
1%
z"
#17732632
1(
z-
#17879812
13
z6
#18026708
10
z.
#18476738
1"
z%
#18599822
18
z:
#18613247
1!
z"
#18613331
1*
z(
#18613625
1:
z8
#18846326
15
z3
#18847411
18
z:
#18854247
1:
z8
#19153897
11
z0
#19154846
18
z:
#19160826
1:
z8
#20223632
1(
z*
#20226426
1"
z!
#20227226
18
z:
#20233173
1:
z8
#20525070
1$
z"
#20526045
18
z:
#20532003
1:
z8
#25090910
1/
z1
#25090921
17
z5
#25090961
1+
z(
#25091648
11
z/
#25091659
15
z7
#25091699
1(
z+
#25968501
1%
z$
#26100135
18
z:
#26113354
1,
z(
#26127105
1.
z1
#26140883
16
z5
#26154741
1:
z8
#27268560
13
z6
#27350861
1'
z%
#27415441
10
z.
#27562753
1-
z,
#28235074
15
z3
#28529539
1(
z-
#28531130
18
z:
#28537125
1:
z8
#28542630
11
z0
#28543606
18
z:
#28549586
1:
z8
#28800288
1"
z'
#28800994
18
z:
#28806947
1:
z8
#29849825
18
z:
#29863247
1!
z"
#29863324
1*
z(
#29863508
1:
z8
#31473625
1(
z*
#31476322
1"
z!
#31477228
18
z:
#31483175
1:
z8
#31703124
1&
z"
#31703902
1$
z&
#31704790
18
z:
#31710748
1:
z8
#32224608
1;
z:
#32224808
1:
z;
#34843507
1%
z$
#35475032
18
z:
#35488353
1.
z1
#35502118
16
z5
#35515887
1-
z(
#35516052
1:
z8
#35762309
1"
z%
#36482633
1(
z-
#36629795
13
z6
#36776689
10
z.
#37051042
1$
z"
#37052286
18
z:
#37058244
1:
z8
#37596309
15
z3
#37597391
18
z:
#37604219
1:
z8
#37903878
11
z0
#37904836
18
z:
#37910816
1:
z8
#41099810
18
z:
#41113319
1!
z$
#41113334
1*
z(
#41113493
1:
z8
#42723635
1(
z*
#42724361
1$
z!
#42725965
18
z:
#42731912
1:
z8
#43218501
1%
z$
#44369752
1$
z%
#44850138
18
z:
#44863338
1,
z(
#44863345
1'
z$
#44877116
1.
z1
#44890868
16
z5
#44904748
1:
z8
#46018545
13
z6
#46165452
10
z.
#46312737
1-
z,
#46313337
1"
z'
#46314752
18
z:
#46320705
1:
z8
#46985059
15
z3
#47279523
1(
z-
#47281125
18
z:
#47287120
1:
z8
#47292641
11
z0
#47293598
18
z:
#47299578
1:
z8
#47602890
1$
z"
#47603549
18
z:
#47609507
1:
z8
#50090919
1/
z1
#50090923
17
z5
#50090958
1+
z(
#50091657
11
z/
#50091661
15
z7
#50091696
1(
z+
#51843501
1%
z$
#52349826
18
z:
#52363327
1*
z(
#52363509
1:
z8
#52676289
1!
z%
#53973628
1(
z*
#54225030
18
z:
#54238357
1.
z1
#54252122
16
z5
#54265888
1-
z(
#54266107
1:
z8
#54287825
1"
z!
#54288455
18
z:
#54294402
1:
z8
#55232634
1(
z-
#55379799
13
z6
#55526693
10
z.
#55576598
1$
z"
#55577292
18
z:
#55583250
1:
z8
#56346313
15
z3
#56347375
18
z:
#56354203
1:
z8
#56593510
1&
z$
#56594248
1$
z&
#56653882
11
z0
#56654840
18
z:
#56660820
1:
z8
#57224597
1;
z:
#57224797
1:
z;
#60093505
1%
z$
#60918600
1$
z%
#63600242
18
z:
#63613334
1!
z$
#63613337
1*
z(
#63640869
1.
z1
#63654620
16
z5
#63668442
1:
z8
#64782297
13
z6
#64929205
10
z.
#65224602
1,
z*
#65225332
1'
z!
#65225949
18
z:
#65231896
1:
z8
#65748811
15
z3
#66056394
11
z0
#66057336
18
z:
#66063316
1:
z8
#66673560
1-
z,
#66674887
1"
z'
#66676004
18
z:
#66681957
1:
z8
#67640346
1(
z-
#67641125
18
z:
#67647120
1:
z8
#67963660
1$
z"
#67964786
18
z:
#67970744
1:
z8
#68343511
1%
z$
#69344006
1$
z%
#72975027
18
z:
#72988365
1"
z$
#72988368
1.
z1
#73002134
16
z5
#73015899
1-
z(
#73016047
1:
z8
#73982645
1(
z-
#74129811
13
z6
#74276704
10
z.
#74277098
1$
z"
#74278550
18
z:
#74284508
1:
z8
#74849818
18
z:
#74863323
1*
z(
#74863327
1!
z$
#74863537
1:
z8
#75096358
17
z3
#75097136
15
z7
#75097403
18
z:
#75104235
1:
z8
#75403910
1/
z0
#75404688
11
z/
#75404855
18
z:
#75410835
1:
z8
#76473569
1+
z*
#76474347
1(
z+
#76474369
1$
z!
#76475953
18
z:
#76481900
1:
z8
#76843508
1%
z$
#78052503
1$
z%
#81593502
1&
z$
#81594240
1$
z&
#82224614
1;
z:
#82224814
1:
z;
#82350149
18
z:
#82363334
1'
z$
#82363358
1,
z(
#82377106
1.
z1
#82390874
16
z5
#82404759
1:
z8
#83518551
13
z6
#83665442
10
z.
#83812757
1-
z,
#83813326
1"
z'
#83814763
18
z:
#83820716
1:
z8
#84485065
15
z3
#84779543
1(
z-
#84781133
18
z:
#84787128
1:
z8
#84792631
11
z0
#84793586
18
z:
#84799566
1:
z8
#85102879
1$
z"
#85103531
18
z:
#85109489
1:
z8
#85468504
1%
z$
#86099830
18
z:
#86113328
1*
z(
#86113513
1:
z8
#86436176
1!
z%
#87723629
1(
z*
#88047218
1$
z!
#88048485
18
z:
#88054432
1:
z8
#91725026
18
z:
#91738349
1"
z$
#91738353
1.
z1
#91752134
16
z5
#91765891
1-
z(
#91766046
1:
z8
#92732637
1(
z-
#92879811
13
z6
#93026689
10
z.
#93027082
1$
z"
#93028544
18
z:
#93034502
1:
z8
#93843501
1%
z$
#93846325
15
z3
#93847375
18
z:
#93854203
1:
z8
#94153878
11
z0
#94154841
18
z:
#94160821
1:
z8
#95349403
1$
z%
#97349813
18
z:
#97363325
1!
z$
#97363338
1*
z(
#97363496
1:
z8
#98973639
1(
z*
#98974367
1$
z!
#98975975
18
z:
#98981922
1:
z8
#100090920
17
z5
#100091658
15
z7
#100340910
1/
z1
#100341648
11
z/
#101100144
18
z:
#101113338
1,
z(
#101113345
1'
z$
#101127113
1.
z1
#101140882
16
z5
#101154750
1:
z8
#102268559
13
z6
#102415449
10
z.
#102562706
1-
z,
#102563337
1"
z'
#102564754
18
z:
#102570707
1:
z8
#102843589
1%
z"
#103235073
15
z3
#103529428
1+
z-
#103530206
1(
z+
#103531125
18
z:
#103537120
1:
z8
#103542638
11
z0
#103543600
18
z:
#103549580
1:
z8
#104201863
1"
z%
#105211754
1$
z"
#105212295
18
z:
#105218253
1:
z8
#106593501
1&
z$
#106594239
1$
z&
#107224607
1;
z:
#107224807
1:
z;
#108599826
18
z:
#108613320
1!
z$
#108613340
1*
z(
#108613509
1:
z8
#110223641
1(
z*
#110224362
1$
z!
#110225965
18
z:
#110231912
1:
z8
#110475031
18
z:
#110488358
1.
z1
#110488369
1"
z$
#110502118
16
z5
#110515901
1-
z(
#110516051
1:
z8
#111482647
1(
z-
#111593589
1%
z"
#111629795
13
z6
#111776694
10
z.
#112476348
1"
z%
#112596309
15
z3
#112597376
18
z:
#112604208
1:
z8
#112660451
1$
z"
#112661036
18
z:
#112666994
1:
z8
#112903883
11
z0
#112904850
18
z:
#112910830
1:
z8
#119850265
18
z:
#119863323
1!
z$
1*
z(
#119890870
1.
z1
#119904618
16
z5
#119918404
1:
z8
#119968559
1%
z!
#121032295
13
z6
#121069698
1!
z%
#121179206
10
z.
#121474588
1,
z*
#121998809
15
z3
#122306395
11
z0
#122307336
18
z:
#122313316
1:
z8
#122577020
1'
z!
#122578455
18
z:
#122584402
1:
z8
#122923546
1-
z,
#123890332
1(
z-
#123891137
18
z:
#123897132
1:
z8
#124027355
1"
z'
#124028507
18
z:
#124034460
1:
z8
#125090922
17
z5
#125091660
15
z7
#125316180
1$
z"
#125317293
18
z:
#125323251
1:
z8
#125340915
1/
z1
#125341653
11
z/
#128465947
1+
z(
#128466685
1(
z+
#128468501
1%
z$
#129225033
18
z:
#129238359
1.
z1
#129252118
16
z5
#129265902
1-
z(
#129266118
1:
z8
#129339891
1"
z%
#130232648
1(
z-
#130379795
13
z6
#130526695
10
z.
#130641277
1$
z"
#130642301
18
z:
#130648259
1:
z8
#131099831
18
z:
#131113320
1!
z$
#131113323
1*
z(
#131113550
1:
z8
#131346309
15
z3
#131347394
18
z:
#131354226
1:
z8
#131653884
11
z0
#131654843
18
z:
#131660823
1:
z8
#132224620
1;
z:
#132224820
1:
z;
#132723624
1(
z*
#132724323
1&
z!
#132725101
1$
z&
#132725957
18
z:
#132731904
1:
z8
#138600134
18
z:
#138613345
1,
z(
#138613352
1'
z$
#138627103
1.
z1
#138640868
16
z5
#138654740
1:
z8
#139768545
13
z6
#139915439
10
z.
#140062744
1-
z,
#140063256
1"
z'
#140064744
18
z:
#140070697
1:
z8
#140735059
15
z3
#141029530
1(
z-
#141031142
18
z:
#141037137
1:
z8
#141042628
11
z0
#141043589
18
z:
#141049569
1:
z8
#141352721
1$
z"
#141353540
18
z:
#141359498
1:
z8
#142349810
18
z:
#142363323
1*
z(
#142363334
1!
z$
#142363493
1:
z8
#143973624
1(
z*
#143974272
1$
z!
#143975972
18
z:
#143981919
1:
z8
#147975026
18
z:
#147988349
1"
z$
#147988370
1.
z1
#148002127
16
z5
#148015883
1-
z(
#148016046
1:
z8
#148982629
1(
z-
#149129804
13
z6
#149276706
10
z.
#149277002
1$
z"
#149278545
18
z:
#149284503
1:
z8
#150096351
17
z3
#150097129
15
z7
#150097375
18
z:
#150104203
1:
z8
#150403928
1/
z0
#150404706
11
z/
#150404842
18
z:
#150410822
1:
z8
#153465957
1+
z(
#153466695
1(
z+
#153599814
18
z:
#153613323
1!
z$
1*
z(
#153613497
1:
z8
#155223624
1(
z*
#155224261
1$
z!
#155225976
18
z:
#155231923
1:
z8
#157224601
1;
z:
#157224801
1:
z;
#157350134
18
z:
#157363335
1'
z$
#157363346
1,
z(
#157377103
1.
z1
#157390868
16
z5
#157404740
1:
z8
#158518545
13
z6
#158665439
10
z.
#158812745
1-
z,
#158813208
1"
z'
#158814744
18
z:
#158820697
1:
z8
#159485059
15
z3
#159779531
1(
z-
#159781141
18
z:
#159787136
1:
z8
#159792628
11
z0
#159793588
18
z:
#159799568
1:
z8
#160102585
1&
z"
#160103363
1$
z&
#160103539
18
z:
#160109497
1:
z8
#164849816
18
z:
#164863320
1!
z$
#164863323
1*
z(
#164863499
1:
z8
#166473624
1(
z*
#166474258
1$
z!
#166475978
18
z:
#166481925
1:
z8
#166725030
18
z:
#166738365
1"
z$
#166738369
1.
z1
#166752127
16
z5
#166765883
1-
z(
#166766054
1:
z8
#167732629
1(
z-
#167879804
13
z6
#168026705
10
z.
#168027018
1$
z"
#168028531
18
z:
#168034489
1:
z8
#168846318
15
z3
#168847380
18
z:
#168854208
1:
z8
#169153894
11
z0
#169154849
18
z:
#169160829
1:
z8
#175090913
17
z5
#175091651
15
z7
#175340924
1/
z1
#175341662
11
z/
#176100260
18
z:
#176113328
1*
z(
#176113338
1!
z$
#176140853
1.
z1
#176154621
16
z5
#176168395
1:
z8
#177282298
13
z6
#177429189
10
z.
#177724593
1,
z*
#177725232
1'
z!
#177725964
18
z:
#177731911
1:
z8
#178248812
15
z3
#178556378
11
z0
#178557347
18
z:
#178563327
1:
z8
#179173544
1-
z,
#179174699
1"
z'
#179175994
18
z:
#179181947
1:
z8
#180140266
1+
z-
#180141044
1(
z+
#180141139
18
z:
#180147134
1:
z8
#180463392
1$
z"
#180464801
18
z:
#180470759
1:
z8
#182224605
1;
z:
#182224805
1:
z;
#185093495
1&
z$
#185094233
1$
z&
#185475029
18
z:
#185488353
1.
z1
#185488368
1"
z$
#185502135
16
z5
#185515890
1-
z(
#185516049
1:
z8
#186482636
1(
z-
#186629812
13
z6
#186776689
10
z.
#186777021
1$
z"
#186778531
18
z:
#186784489
1:
z8
#187349818
18
z:
#187363326
1!
z$
#187363335
1*
z(
#187363537
1:
z8
#187597405
18
z:
#187604237
1:
z8
#187904836
18
z:
#187910816
1:
z8
#188975955
18
z:
#188981902
1:
z8
