ovp_platform/platform_2_tlb/platform.vcd
$version
Imperas Tools
$end
$comment merged vcds for all cores $end
$timescale 8ns $end
$scope module platform $end
 $var wire 1 ! cpu0_uC/OS-II_Stat $end
 $var wire 1 " cpu0_uC/OS-II_Idle $end
 $var wire 1 # cpu0_for_loop_50000 $end
 $var wire 1 $ cpu0_for_loop_0 $end
 $var wire 1 % cpu0_None $end
 $var wire 1 & cpu1_None $end
 $var wire 1 ' cpu1_for_loop_0 $end
 $var wire 1 ( cpu1_uC/OS-II_Stat $end
 $var wire 1 ) cpu1_uC/OS-II_Idle $end
 $var wire 1 * cpum_dma $end
 $var wire 1 + cpum_uC/OS-II_Stat $end
 $var wire 1 , cpum_None $end
 $var wire 1 - cpum_uC/OS-II_Idle $end
$upscope $end
$enddefinitions $end
#0
x!
x#
x$
x"
x%
x(
x'
x)
x&
x+
x*
x-
x,
#109633
1'
z&
#110130
1(
z'
#110512
1#
z%
#110685
1)
z(
#1206313
1$
z#
#1206797
1!
z$
#1207352
1"
z!
#3000467
1*
z,
#3000735
1+
z*
#3000925
1-
z+
#3098520
1*
z-
#3111685
1-
z*
#3112067
1'
z)
#3112079
1$
z"
#4720705
1)
z'
#4721458
1"
z$
#4722148
1*
z-
#4734592
1'
z)
#4734718
1$
z"
#4734969
1-
z*
#6343226
1)
z'
#6344093
1"
z$
#6344730
1*
z-
#6351302
1-
z*
#10598501
1*
z-
#10609352
1-
z*
#10609565
1$
z"
#10609578
1'
z)
#12218212
1)
z'
#12218836
1"
z$
#12219749
1*
z-
#12226321
1-
z*
#18098502
1*
z-
#18109353
1-
z*
#18109578
1$
z"
#18109584
1'
z)
#19718218
1)
z'
#19718849
1"
z$
#19719729
1*
z-
#19726301
1-
z*
#25090816
1(
z)
#25091554
1)
z(
#25598505
1*
z-
#25609356
1-
z*
#25609562
1$
z"
#25609565
1'
z)
#27218199
1)
z'
#27218794
1!
z$
#27219572
1"
z!
#27219729
1*
z-
#27226301
1-
z*
#27973283
1+
z-
#27973483
1-
z+
#33098501
1*
z-
#33109352
1-
z*
#33109565
1'
z)
#33109578
1$
z"
#34718199
1)
z'
#34718849
1"
z$
#34719745
1*
z-
#34726317
1-
z*
#40598501
1*
z-
#40609352
1-
z*
#40609562
1$
z"
#40609569
1'
z)
#42218203
1)
z'
#42218833
1"
z$
#42219748
1*
z-
#42226320
1-
z*
#48098501
1*
z-
#48109352
1-
z*
#48109575
1$
z"
1'
z)
#49718209
1)
z'
#49718846
1"
z$
#49719729
1*
z-
#49726301
1-
z*
#50090824
1(
z)
#50091562
1)
z(
#52217126
1!
z"
#52217864
1"
z!
#52973294
1+
z-
#52973494
1-
z+
#55598520
1*
z-
#55609371
1-
z*
#55609561
1$
z"
#55609577
1'
z)
#57218211
1)
z'
#57218832
1"
z$
#57219741
1*
z-
#57226313
1-
z*
#63098501
1*
z-
#63109352
1-
z*
#63109568
1$
z"
#63109583
1'
z)
#64719744
1*
z-
