ovp_platform/platform_2_tlb/platform.vcd
$version
Imperas Tools
$end
$comment merged vcds for all cores $end
$timescale 8ns $end
$scope module platform $end
 $var wire 1 ! cpu0_uC/OS-II_Stat $end
 $var wire 1 " cpu0_uC/OS-II_Idle $end
 $var wire 1 # cpu0_for_loop_50000 $end
 $var wire 1 $ cpu0_for_loop_0 $end
 $var wire 1 % cpu0_None $end
 $var wire 1 & cpu1_None $end
 $var wire 1 ' cpu1_for_loop_0 $end
 $var wire 1 ( cpu1_uC/OS-II_Idle $end
 $var wire 1 ) cpu1_uC/OS-II_Stat $end
 $var wire 1 * cpum_dma $end
 $var wire 1 + cpum_uC/OS-II_Stat $end
 $var wire 1 , cpum_None $end
 $var wire 1 - cpum_uC/OS-II_Idle $end
$upscope $end
$enddefinitions $end
#0
x$
x#
x!
x"
x%
x(
x'
x)
x&
x*
x+
x-
x,
#109657
1'
z&
#110155
1)
z'
#110536
1#
z%
#110710
1(
z)
#114666
1*
z,
#114932
1+
z*
#115122
1-
z+
#223494
1*
z-
#236521
1-
z*
#237061
1'
z(
#1227281
1$
z#
#2865268
1!
z$
#2865823
1"
z!
#3020100
1(
z'
#3020974
1*
z-
#3026930
1-
z*
#7723491
1*
z-
#7734258
1-
z*
#7734574
1$
z"
#7734575
1'
z(
#8719404
1#
z$
#9521184
1(
z'
#10327858
1$
z#
#10984666
1"
z$
#10985990
1*
z-
#10991946
1-
z*
#15223506
1*
z-
#15234273
1-
z*
#15234569
1'
z(
#15234577
1$
z"
#16872707
1"
z$
#17021313
1(
z'
#17022238
1*
z-
#17028194
1-
z*
#17717119
1#
z"
#18613787
1"
z#
#22723502
1*
z-
#22734269
1-
z*
#22734558
1$
z"
#22734561
1'
z(
#24372688
1"
z$
#24521298
1(
z'
#24522234
1*
z-
#24528190
1-
z*
#25090824
1)
z(
#25091562
1(
z)
#25098287
1+
z-
#25098487
1-
z+
#26092133
1#
z"
#27496841
1"
z#
#27842119
1!
z"
#27842857
1"
z!
#30223490
1*
z-
#30234257
1-
z*
#30234561
1'
z(
#30234563
1$
z"
#31872693
1"
z$
#32021316
1(
z'
#32022224
1*
z-
#32028180
1-
z*
#34967123
1#
z"
#35900127
1"
z#
#37723510
1*
z-
#37734277
1-
z*
#37734567
1$
z"
#37734579
1'
z(
#39372697
1"
z$
#39521188
1(
z'
#39522242
1*
z-
#39528198
1-
z*
#43342138
1#
z"
#44512251
1"
z#
#45223506
1*
z-
#45234273
1-
z*
#45234558
1$
z"
#45234573
1'
z(
#46872688
1"
z$
#47021317
1(
z'
#47022238
1*
z-
#47028194
1-
z*
#50090832
1)
z(
#50091570
1(
z)
#50098278
1+
z-
#50098478
1-
z+
#51967138
1#
z"
#52723490
1*
z-
#52734257
1-
z*
#52734561
1'
z(
#52812544
1$
z#
#54450163
1!
z$
#54450941
1"
z!
#54613559
1(
z'
#54614740
1*
z-
#54620696
1-
z*
#60217136
1#
z"
#60223490
1*
z-
#60234257
1-
z*
#60234575
1'
z(
#61055306
1$
z#
#62693152
1"
z$
#62860313
1(
z'
#62860993
1*
z-
#62866949
1-
z*
#67723490
1*
z-
#67734257
1-
z*
#67734558
1$
z"
#67734561
1'
z(
#68469369
1#
z$
#69505812
1$
z#
#69522060
1(
z'
#70409785
1"
z$
#70410984
1*
z-
#70416940
1-
z*
#75090823
1)
z(
#75091561
1(
z)
#75098277
1+
z-
#75098477
1-
z+
#75223495
1*
z-
#75234262
1-
z*
#75234563
1$
z"
1'
z(
#76872693
1"
z$
#76967135
1#
z"
#77021990
1(
z'
#77023474
1*
z-
#77029430
1-
z*
#78194992
1"
z#
#79342136
1!
z"
#79342874
1"
z!
#82723491
1*
z-
#82734258
1-
z*
#82734558
1$
z"
#82734563
1'
z(
#84372688
1"
z$
#84522062
1(
z'
#84523474
1*
z-
#84529430
1-
z*
#85592136
1#
z"
#86574040
1"
z#
#90223490
1*
z-
#90234257
1-
z*
#90234564
1$
z"
#90234577
1'
z(
#91872694
1"
z$
#92021930
1(
z'
#92023474
1*
z-
#92029430
1-
z*
#93967128
1#
z"
#95498352
1"
z#
#97723490
1*
z-
#97734257
1-
z*
#97734561
1'
z(
#97734572
1$
z"
#99372702
1"
z$
#99522060
1(
z'
#99523491
1*
z-
#99529447
1-
z*
#100090812
1)
z(
#100091550
1(
z)
#100098297
1+
z-
#100098497
1-
z+
#102967130
1#
z"
#104347433
1!
z#
#104348171
1"
z!
#105223495
1*
z-
#105234262
1-
z*
#105234558
1$
z"
#105234571
1'
z(
#106872688
1"
z$
#107021987
1(
z'
#107023474
1*
z-
#107029430
1-
z*
#111842121
1#
z"
#112723491
1*
z-
#112734258
1-
z*
#112734561
1'
z(
#112738845
1$
z#
#114377022
1"
z$
#114527054
1(
z'
#114528487
1*
z-
#114534443
1-
z*
#120217120
1#
z"
#120223490
1*
z-
#120234257
1-
z*
#120234580
1'
z(
#121334213
1$
z#
#122975184
1"
z$
#123141496
1(
z'
#123142224
1*
z-
#123148180
1-
z*
#125090812
1)
z(
#125091550
1(
z)
#125098295
1+
z-
#125098495
1-
z+
#127723500
1*
z-
#127734267
1-
z*
#127734570
1$
z"
#127734579
1'
z(
#128719404
1#
z$
#129521363
1(
z'
#129622681
1$
z#
#130276561
1!
z$
#130277243
1*
z-
#130277339
1"
z!
#130283199
1-
z*
#135223491
1*
z-
#135234258
1-
z*
#135234574
1'
z(
#135234577
1$
z"
#136872707
1"
z$
#137021194
1(
z'
#137022224
1*
z-
#137028180
1-
z*
#137092134
1#
z"
#138739098
1"
z#
#142723490
1*
z-
#142734257
1-
z*
#142734562
1$
z"
#142734579
1'
z(
#144372692
1"
z$
#144521312
1(
z'
#144522224
1*
z-
#144528180
1-
z*
#146217127
1#
z"
#147808047
1"
z#
#150090812
1)
z(
#150091550
1(
z)
#150098277
1+
z-
#150098477
1-
z+
#150223499
1*
z-
#150234266
1-
z*
#150234558
1$
z"
#150234577
1'
z(
#151872688
1"
z$
#152021186
1(
z'
#152022231
1*
z-
#152028187
1-
z*
#155217152
1#
z"
#156281019
1!
z#
#156281757
1"
z!
#157723495
1*
z-
#157734262
1-
z*
#157734567
1$
z"
#157734571
1'
z(
#159372697
1"
z$
#159521367
1(
z'
#159522227
1*
z-
#159528183
1-
z*
#163717122
1#
z"
#164776297
1"
z#
#165223491
1*
z-
#165234258
1-
z*
#165234568
1$
z"
#165234578
1'
z(
#166872698
1"
z$
#167021187
1(
z'
#167022224
1*
z-
#167028180
1-
z*
#172217119
1#
z"
#172723490
1*
z-
#172734257
1-
z*
#172734572
1'
z(
#173385582
1$
z#
#175023684
1"
z$
#175098292
1+
z-
#175098492
1-
z+
#175175874
1)
z'
#175176652
1(
z)
#175177224
1*
z-
#175183180
1-
z*
#180223490
1*
z-
#180234257
1-
z*
#180234558
1$
z"
#180234561
1'
z(
#180844411
1#
z$
#182021313
1(
z'
#182409272
1$
z#
#183438045
1!
z$
#183438823
1"
z!
#183439725
1*
z-
#183445681
1-
z*
#187723501
1*
z-
#187734268
1-
z*
#187734566
1$
z"
#187734580
1'
z(
#189372696
1"
z$
#189521189
1(
z'
#189522233
1*
z-
#189528189
1-
z*
#189842122
1#
z"
#191181150
1"
z#
#195223497
1*
z-
#195234264
1-
z*
#195234558
1$
z"
#195234574
1'
z(
#196872688
1"
z$
#197021318
1(
z'
#197022229
1*
z-
#197028185
1-
z*
#198592131
1#
z"
#200090812
1)
z(
#200091550
1(
z)
#200098277
1+
z-
#200098477
1-
z+
#200128971
1"
z#
#202723509
1*
z-
#202734276
1-
z*
#202734561
1'
z(
#202734578
1$
z"
#204372708
1"
z$
#204521192
1(
z'
#204522241
1*
z-
#204528197
1-
z*
#207592123
1#
z"
#208610387
1!
z#
#208611125
1"
z!
#210223505
1*
z-
#210234272
1-
z*
#210234570
1'
z(
#210234571
1$
z"
#211872701
1"
z$
#212021365
1(
z'
#212022237
1*
z-
#212028193
1-
z*
#216092119
1#
z"
#217539031
1"
z#
#217723501
1*
z-
#217734268
1-
z*
#217734565
1$
z"
#217734576
1'
z(
#219372695
1"
z$
#219521185
1(
z'
#219522233
1*
z-
#219528189
1-
z*
#224967119
1#
z"
#225090826
1)
z(
#225091564
1(
z)
#225098289
1+
z-
#225098489
1-
z+
#225223490
1*
z-
#225234257
1-
z*
#225234566
1'
z(
#226464577
1$
z#
#228106064
1"
z$
#228271700
1(
z'
#228272235
1*
z-
#228278191
1-
z*
#232723491
1*
z-
#232734258
1-
z*
#232734558
1$
z"
#232734561
1'
z(
#233844355
1#
z$
#234521244
1(
z'
#234729849
1$
z#
#235258815
1!
z$
#235259593
1"
z!
#235259724
1*
z-
#235265680
1-
z*
#240223490
1*
z-
#240234257
1-
z*
#240234568
1'
z(
#240234572
1$
z"
#241872702
1"
z$
#242021312
1(
z'
#242022243
1*
z-
#242028199
1-
z*
#242217119
1#
z"
#243739287
1"
z#
#247723507
1*
z-
#247734274
1-
z*
#247734572
1$
z"
#247734581
1'
z(
#249372702
1"
z$
#249521190
1(
z'
#249522239
1*
z-
#249528195
1-
z*
#250090812
1)
z(
#250091550
1(
z)
#250098292
1+
z-
#250098492
1-
z+
#251217131
1#
z"
#252198039
1"
z#
#255223490
1*
z-
#255234257
1-
z*
#255234565
1'
z(
#255234566
1$
z"
#256872696
1"
z$
#257021309
1(
z'
#257022224
1*
z-
#257028180
1-
z*
#259592119
1#
z"
#261026296
1!
z#
#261027034
1"
z!
#262723509
1*
z-
#262734276
1-
z*
#262734569
1$
z"
#262734578
1'
z(
#264372699
1"
z$
#264521239
1(
z'
#264522241
1*
z-
#264528197
1-
z*
#268467125
1#
z"
#269565360
1"
z#
#270223505
1*
z-
#270234334
1-
z*
#270234566
1'
z(
#270234567
1$
z"
#271872697
1"
z$
#272021310
1(
z'
#272022241
1*
z-
#272028197
1-
z*
#275090825
1)
z(
#275091563
1(
z)
#275098281
1+
z-
#275098481
1-
z+
#276967119
1#
z"
#277723492
1*
z-
#277734259
1-
z*
#277734575
1'
z(
#277945945
1$
z#
#279583786
1"
z$
#279748508
1(
z'
#279749724
1*
z-
#279755680
1-
z*
#285223496
1*
z-
#285234263
1-
z*
#285234569
1$
z"
#285234570
1'
z(
#285344411
1#
z$
#286952544
1$
z#
#287021314
1(
z'
#288484114
1!
z$
#288484724
1*
z-
#288484892
1"
z!
#288490680
1-
z*
#292723490
1*
z-
#292734257
1-
z*
#292734560
1$
z"
#292734561
1'
z(
#294344345
1#
z$
#294521244
1(
z'
#295913209
1$
z#
#295942114
1"
z$
#295943487
1*
z-
#295949443
1-
z*
#300090820
1)
z(
#300091558
1(
z)
#300098285
1+
z-
#300098485
1-
z+
#300223509
1*
z-
#300234276
1-
z*
#300234561
1'
z(
#300234563
1$
z"
#301872693
1"
z$
#302021316
1(
z'
#302022241
1*
z-
#302028197
1-
z*
#303342119
1#
z"
#304954223
1"
z#
#307723505
1*
z-
#307734272
1-
z*
#307734561
1'
z(
#307734570
1$
z"
#309372700
1"
z$
#309521192
1(
z'
#309522237
1*
z-
#309528193
1-
z*
#312342119
1#
z"
#313320615
1"
z#
#313467122
1!
z"
#313467860
1"
z!
#315223501
1*
z-
#315234268
1-
z*
#315234561
1$
z"
#315234571
1'
z(
#316872691
1"
z$
#317021315
1(
z'
#317022233
1*
z-
#317028189
1-
z*
#320717119
1#
z"
#322231815
1"
z#
#322723497
1*
z-
#322734264
1-
z*
#322734561
1'
z(
#322734571
1$
z"
#324372701
1"
z$
#324521244
1(
z'
#324522229
1*
z-
#324528185
1-
z*
#325090830
1)
z(
#325091568
1(
z)
#325098282
1+
z-
#325098482
1-
z+
#329717122
1#
z"
#330223509
1*
z-
#330234276
1-
z*
#330234561
1'
z(
#330895873
1$
z#
#332533786
1"
z$
#332685840
1(
z'
#332687227
1*
z-
#332693183
1-
z*
#337723496
1*
z-
#337734263
1-
z*
#337734565
1'
z(
#337734567
1$
z"
#338344411
1#
z$
#339521309
1(
z'
#339660932
1$
z#
#340689722
1!
z$
#340690500
1"
z!
#340690980
1*
z-
#340696936
1-
z*
#345223499
1*
z-
#345234266
1-
z*
#345234561
1$
z"
#345234578
1'
z(
#346872691
1"
z$
#347021255
1(
z'
#347022231
1*
z-
#347028187
1-
z*
#347092119
1#
z"
#348548551
1"
z#
#350090828
1)
z(
#350091566
1(
z)
#350098277
1+
z-
#350098477
1-
z+
#352723490
1*
z-
#352734257
1-
z*
#352734563
1$
z"
#352734578
1'
z(
#354372693
1"
z$
#354521311
1(
z'
#354522243
1*
z-
#354528199
1-
z*
#355967129
1#
z"
#357511317
1"
z#
#360223507
1*
z-
#360234274
1-
z*
#360234572
1$
z"
#360234580
1'
z(
#361872702
1"
z$
#362021189
1(
z'
#362022239
1*
z-
#362028195
1-
z*
#364967132
1#
z"
#365957833
1!
z#
#365958571
1"
z!
#367723503
1*
z-
#367734270
1-
z*
#367734574
1'
z(
#367734576
1$
z"
#369372706
1"
z$
#369521318
1(
z'
#369522235
1*
z-
#369528191
1-
z*
#373342119
1#
z"
#374252275
1"
z#
#375090814
1)
z(
#375091552
1(
z)
#375098291
1+
z-
#375098491
1-
z+
#375223542
1*
z-
#375234309
1-
z*
#375234577
1'
z(
#375234578
1$
z"
#376872708
1"
z$
#377021254
1(
z'
#377022241
1*
z-
#377028197
1-
z*
#381717131
1#
z"
#382723505
1*
z-
#382734272
1-
z*
#382734581
1'
z(
#382797332
1$
z#
#384435282
1"
z$
#384585059
1(
z'
#384585979
1*
z-
#384591935
1-
z*
#390217119
1#
z"
#390223501
1*
z-
#390234268
1-
z*
#390234561
1'
z(
#391617102
1$
z#
#393254936
1!
z$
#393255714
1"
z!
#393411434
1(
z'
#393412244
1*
z-
#393418200
1-
z*
#397723490
1*
z-
#397734257
1-
z*
#397734559
1$
z"
#397734570
1'
z(
#399094386
1#
z$
#399522113
1(
z'
#400088193
1$
z#
#400090812
1)
z(
#400091550
1(
z)
#400098288
1+
z-
#400098488
1-
z+
#400369952
1"
z$
#400370979
1*
z-
#400376935
1-
z*
#405223494
1*
z-
#405234261
1-
z*
#405234558
1$
z"
#405234566
1'
z(
#406872688
1"
z$
#407021930
1(
z'
#407023474
1*
z-
#407029430
1-
z*
#407467121
1#
z"
#408688102
1"
z#
#412723490
1*
z-
#412734257
1-
z*
#412734561
1'
z(
#412734572
1$
z"
#414372702
1"
z$
#414522060
1(
z'
#414523474
1*
z-
#414529430
1-
z*
#416092123
1#
z"
#417272076
1"
z#
#418217129
1!
z"
#418217867
1"
z!
#420223490
1*
z-
#420234257
1-
z*
#420234567
1$
z"
#420234575
1'
z(
#421872697
1"
z$
#422021928
1(
z'
#422023494
1*
z-
#422029450
1-
z*
#424717128
1#
z"
#425090812
1)
z(
#425091550
1(
z)
#425098287
1+
z-
#425098487
1-
z+
#426017020
1"
z#
#427723498
1*
z-
#427734265
1-
z*
#427734561
1'
z(
#427734566
1$
z"
#429372696
1"
z$
#429522115
1(
z'
#429523477
1*
z-
#429529433
1-
z*
#433467122
1#
z"
#434605207
1"
z#
#435223494
1*
z-
#435234261
1-
z*
#435234566
1'
z(
#435234573
1$
z"
#436872703
1"
z$
#437021930
1(
z'
#437023474
1*
z-
#437029430
1-
z*
#442092139
1#
z"
#442723490
1*
z-
#442734257
1-
z*
#442734561
1'
z(
#443136592
1$
z#
#444774397
1!
z$
#444775175
1"
z!
#444927274
1(
z'
#444928481
1*
z-
#444934437
1-
z*
#450090812
1)
z(
#450091550
1(
z)
#450098290
1+
z-
#450098490
1-
z+
#450223490
1*
z-
#450234257
1-
z*
#450234558
1$
z"
#450234580
1'
z(
#450594353
1#
z$
#451478635
1$
z#
#452022057
1(
z'
#452757674
1"
z$
#452758494
1*
z-
#452764450
1-
z*
#457723505
1*
z-
#457734272
1-
z*
#457734558
1$
z"
#457734572
1'
z(
#458969387
1#
z$
#459521988
1(
z'
#460147746
1$
z#
#460551639
1"
z$
#460552244
1*
z-
#460558200
1-
z*
#465223504
1*
z-
#465234271
1-
z*
#465234558
1$
z"
#465234561
1'
z(
#466872688
1"
z$
#467022060
1(
z'
#467023483
1*
z-
#467029439
1-
z*
#467592139
1#
z"
#468922317
1"
z#
#469717126
1!
z"
#469717864
1"
z!
#472723500
1*
z-
#472734267
1-
z*
#472734560
1$
z"
#472734575
1'
z(
#474372690
1"
z$
#474521928
1(
z'
#474523479
1*
z-
#474529435
1-
z*
#475090824
1)
z(
#475091562
1(
z)
#475098285
1+
z-
#475098485
1-
z+
#476342139
1#
z"
#477716031
1"
z#
#480223490
1*
z-
#480234257
1-
z*
#480234558
1$
z"
#480234561
1'
z(
#481872688
1"
z$
#482022060
1(
z'
#482023491
1*
z-
#482029447
1-
z*
#485092125
1#
z"
#486701209
1"
z#
#487723508
1*
z-
#487734275
1-
z*
#487734558
1$
z"
#487734569
1'
z(
#489372688
1"
z$
#489522024
1(
z'
#489523487
1*
z-
#489529443
1-
z*
#494092122
1#
z"
#494980823
1!
z#
#494981561
1"
z!
#495223504
1*
z-
#495234271
1-
z*
#495234558
1$
z"
#495234568
1'
z(
#496872688
1"
z$
#497022056
1(
z'
#497023483
1*
z-
#497029439
1-
z*
#500090817
1)
z(
#500091555
1(
z)
#500098277
1+
z-
#500098477
1-
z+
#502467124
1#
z"
#502723510
1*
z-
#502734277
1-
z*
#502734561
1'
z(
#503784646
1$
z#
#505422558
1"
z$
#505577172
1(
z'
#505578494
1*
z-
#505584450
1-
z*
#510223509
1*
z-
#510234276
1-
z*
#510234558
1$
z"
#510234561
1'
z(
#511219404
1#
z$
#512021988
1(
z'
#512699351
1$
z#
#513356011
1"
z$
#513357239
1*
z-
#513363195
1-
z*
#517723491
1*
z-
#517734258
1-
z*
#517734558
1$
z"
#517734561
1'
z(
#519372688
1"
z$
#519522060
1(
z'
#519523474
1*
z-
#519529430
1-
z*
#519967124
1!
z"
#519967862
1"
z!
#520092134
1#
z"
#520965842
1"
z#
#525090824
1)
z(
#525091562
1(
z)
#525098279
1+
z-
#525098479
1-
z+
#525223503
1*
z-
#525234270
1-
z*
#525234558
1$
z"
#525234564
1'
z(
#526872688
1"
z$
#527021928
1(
z'
#527023482
1*
z-
#527029438
1-
z*
#528342139
1#
z"
#529490688
1"
z#
#532723499
1*
z-
#532734266
1-
z*
#532734560
1$
z"
#532734561
1'
z(
#534372690
1"
z$
#534522060
1(
z'
#534523478
1*
z-
#534529434
1-
z*
#536967122
1#
z"
#538097565
1"
z#
#540223495
1*
z-
#540234262
1-
z*
#540234558
1$
z"
#540234573
1'
z(
#541872688
1"
z$
#542021989
1(
z'
#542023474
1*
z-
#542029492
1-
z*
#544967119
1!
z"
#544967857
1"
z!
#545592120
1#
z"
#546996520
1"
z#
#547723495
1*
z-
#547734262
1-
z*
#547734562
1'
z(
#547734573
1$
z"
#549372703
1"
z$
#549522061
1(
z'
#549523474
1*
z-
#549529430
1-
z*
#550090812
1)
z(
#550091550
1(
z)
#550098280
1+
z-
#550098480
1-
z+
#554467125
1#
z"
#555223507
1*
z-
#555234274
1-
z*
#555234572
1'
z(
#555567022
1$
z#
#557204704
1"
z$
#557370379
1(
z'
#557370991
1*
z-
#557376947
1-
z*
#562723490
1*
z-
#562734257
1-
z*
#562734561
1'
z(
#562734562
1$
z"
#562969400
1#
z$
#564016274
1$
z#
#564521988
1(
z'
#565420143
1"
z$
#565420991
1*
z-
#565426947
1-
z*
#569967123
1!
z"
#569967861
1"
z!
#570223510
1*
z-
#570234277
1-
z*
#570234561
1'
z(
#570234568
1$
z"
#571469387
1#
z$
#572022060
1(
z'
#572386801
1$
z#
#572790760
1"
z$
#572792224
1*
z-
#572798180
1-
z*
#575090818
1)
z(
#575091556
1(
z)
#575098277
1+
z-
#575098477
1-
z+
#577723490
1*
z-
#577734257
1-
z*
#577734558
1$
z"
#577734568
1'
z(
#579372688
1"
z$
#579521932
1(
z'
#579523474
1*
z-
#579529430
1-
z*
#579842138
1#
z"
#581240346
1"
z#
#585223490
1*
z-
#585234257
1-
z*
#585234563
1$
z"
1'
z(
#586872693
1"
z$
#587022062
1(
z'
#587023492
1*
z-
#587029448
1-
z*
#588717128
1#
z"
#589645092
1"
z#
#592723509
1*
z-
#592734276
1-
z*
#592734573
1$
z"
#592734577
1'
z(
#594372703
1"
z$
#594521982
1(
z'
#594523488
1*
z-
#594529444
1-
z*
#594967119
1!
z"
#594967857
1"
z!
#597092119
1#
z"
#598682911
1"
z#
#600090812
1)
z(
#600091550
1(
z)
#600098297
1+
z-
#600098497
1-
z+
#600223492
1*
z-
#600234259
1-
z*
#600234558
1$
z"
#600234580
1'
z(
#601872688
1"
z$
#602022057
1(
z'
#602023474
1*
z-
#602029430
1-
z*
#606092120
1#
z"
#607329821
1"
z#
#607723490
1*
z-
#607734257
1-
z*
#607734558
1$
z"
#607734572
1'
z(
#609372688
1"
z$
#609521936
1(
z'
#609523474
1*
z-
#609529430
1-
z*
#614717138
1#
z"
#615223490
1*
z-
#615234257
1-
z*
#615234567
1'
z(
#615933137
1$
z#
#617570984
1"
z$
#617737904
1(
z'
#617738483
1*
z-
#617744439
1-
z*
#619967119
1!
z"
#619967857
1"
z!
#622723504
1*
z-
#622734271
1-
z*
#622734558
1$
z"
#622734578
1'
z(
#623344411
1#
z$
#624521983
1(
z'
#624737597
1$
z#
#625090821
1)
z(
#625091559
1(
z)
#625098281
1+
z-
#625098481
1-
z+
#625766553
1"
z$
#625767224
1*
z-
#625773180
1-
z*
#630223492
1*
z-
#630234259
1-
z*
#630234559
1$
z"
#630234575
1'
z(
#631872689
1"
z$
#632022052
1(
z'
#632023474
1*
z-
#632029430
1-
z*
#632217130
1#
z"
#633589266
1"
z#
#637723490
1*
z-
#637734257
1-
z*
#637734563
1$
z"
#637734567
1'
z(
#639372693
1"
z$
#639521931
1(
z'
#639523474
1*
z-
#639529430
1-
z*
#640967129
1#
z"
#641884517
1"
z#
#644967133
1!
z"
#644967871
1"
z!
#645223490
1*
z-
#645234257
1-
z*
#645234562
1'
z(
#645234578
1$
z"
#646872708
1"
z$
#647022061
1(
z'
#647023492
1*
z-
#647029448
1-
z*
#649342126
1#
z"
#650090822
1)
z(
#650091560
1(
z)
#650098285
1+
z-
#650098485
1-
z+
#650195002
1"
z#
#652723496
1*
z-
#652734263
1-
z*
#652734572
1'
z(
#652734576
1$
z"
#654372706
1"
z$
#654522027
1(
z'
#654523475
1*
z-
#654529431
1-
z*
#657592121
1#
z"
#658638868
1"
z#
#660223492
1*
z-
#660234259
1-
z*
#660234561
1$
z"
#660234571
1'
z(
#661872691
1"
z$
#662022059
1(
z'
#662023474
1*
z-
#662029430
1-
z*
#666092131
1#
z"
#667144634
1"
z#
#667723490
1*
z-
#667734257
1-
z*
#667734560
1$
z"
#667734574
1'
z(
#669372690
1"
z$
#669521938
1(
z'
#669523474
1*
z-
#669529430
1-
z*
#669967130
1!
z"
#669967868
1"
z!
#674592122
1#
z"
#675090825
1)
z(
#675091563
1(
z)
#675098277
1+
z-
#675098477
1-
z+
#675223500
1*
z-
#675234267
1-
z*
#675234565
1'
z(
#675504964
1$
z#
#677142989
1"
z$
#677295566
1(
z'
#677297228
1*
z-
#677303184
1-
z*
#682723504
1*
z-
#682734271
1-
z*
#682734559
1$
z"
#682734561
1'
z(
#682969400
1#
z$
#684209086
1$
z#
#684521936
1(
z'
#685615757
1"
z$
#685617241
1*
z-
#685623197
1-
z*
#690223507
1*
z-
#690234274
1-
z*
#690234562
1$
z"
#690234567
1'
z(
#691594386
1#
z$
#692022055
1(
z'
#692645841
1$
z#
#692924819
1"
z$
#692925974
1*
z-
#692931930
1-
z*
#694967119
1!
z"
#694967857
1"
z!
#697723502
1*
z-
#697734269
1-
z*
#697734570
1'
z(
#697734575
1$
z"
#699372705
1"
z$
#699521934
1(
z'
#699523481
1*
z-
#699529437
1-
z*
#700090830
1)
z(
#700091568
1(
z)
#700092130
1#
z"
#700098287
1+
z-
#700098487
1-
z+
#701693546
1"
z#
#705223490
1*
z-
#705234257
1-
z*
#705234561
1'
z(
#705234566
1$
z"
#706872696
1"
z$
#707022112
1(
z'
#707023493
1*
z-
#707029449
1-
z*
#709092119
1#
z"
#709978563
1"
z#
#712723510
1*
z-
#712734277
1-
z*
#712734558
1$
z"
#712734569
1'
z(
#714523489
1*
z-
