ovp_platform/platform_2_tlb/platform.vcd
$version
Imperas Tools
$end
$comment merged vcds for all cores $end
$timescale 8ns $end
$scope module platform $end
 $var wire 1 ! cpu0_uC/OS-II_Stat $end
 $var wire 1 " cpu0_TractionControl $end
 $var wire 1 # cpu0_uC/OS-II_Idle $end
 $var wire 1 $ cpu0_AirbagModel $end
 $var wire 1 % cpu0_FuelSensor $end
 $var wire 1 & cpu0_None $end
 $var wire 1 ' cpu0_CruiseControlSystem $end
 $var wire 1 ( cpu0_TransmissionControl $end
 $var wire 1 ) cpu1_TractionControl $end
 $var wire 1 * cpu1_None $end
 $var wire 1 + cpu1_CollisionAvoidance $end
 $var wire 1 , cpu1_uC/OS-II_Idle $end
 $var wire 1 - cpu1_AirbagModel $end
 $var wire 1 . cpu1_CruiseControlSystem $end
 $var wire 1 / cpu1_uC/OS-II_Stat $end
 $var wire 1 0 cpum_dma $end
 $var wire 1 1 cpum_uC/OS-II_Idle $end
 $var wire 1 2 cpum_None $end
 $var wire 1 3 cpum_Derivative $end
 $var wire 1 4 cpum_uC/OS-II_Stat $end
$upscope $end
$enddefinitions $end
#0
x$
x#
x(
x!
x%
x"
x'
x&
x)
x.
x,
x/
x+
x-
x*
x1
x0
x4
x3
x2
#112804
1-
z*
#113251
1.
z-
#113655
1$
z&
#113717
1)
z.
#114103
1'
z$
#114232
1+
z)
#114570
1"
z'
#115086
1%
z"
#116170
10
z2
#116429
13
z0
#117594
1/
z+
#117799
1(
z%
#118149
1,
z/
#120106
14
z3
#120296
11
z4
#120515
1!
z(
#121070
1#
z!
#223790
10
z1
#237060
1$
z#
#237062
1-
z,
#238053
1#
z$
#238133
1,
z-
#250836
1.
z,
#250844
1'
z#
#251777
1#
z'
#251913
1,
z.
#264589
1"
z#
#264606
1)
z,
#265504
1#
z"
#265643
1,
z)
#275809
1$
z#
#276883
1#
z$
#277062
1-
z,
#277972
1,
z-
#294327
11
z0
#1968448
1(
z#
#1971358
1#
z(
#2723546
10
z1
#2734366
11
z0
#2734583
1.
z,
#2734588
1'
z#
#2735521
1#
z'
#2735660
1,
z.
#2737212
10
z1
#2743168
11
z0
#3843442
1(
z#
#3846352
1#
z(
#3973556
10
z1
#3984403
11
z0
#3984592
1)
z,
#3984599
1"
z#
#3985514
1#
z"
#3985640
1,
z)
#3987203
10
z1
#3993159
11
z0
#5098341
13
z1
#5102037
11
z3
#5223550
10
z1
#5234370
11
z0
#5234580
1.
z,
#5234584
1'
z#
#5235517
1#
z'
#5235657
1,
z.
#5237217
10
z1
#5243173
11
z0
#5718440
1(
z#
#5721350
1#
z(
#6473561
10
z1
#6484315
11
z0
#6484562
1-
z,
#6484565
1$
z#
#6485474
1#
z$
#6485637
1,
z-
#6487220
10
z1
#6493176
11
z0
#7593430
1(
z#
#7596340
1#
z(
#7723678
10
z1
#7734574
1'
z#
#7734577
1.
z,
#7735507
1#
z'
#7735654
1,
z.
#7745840
1"
z#
#7745850
1)
z,
#7746755
1#
z"
#7746887
1,
z)
#7758270
11
z0
#9468463
1%
z#
#9471370
1(
z%
#9474280
1#
z(
#10098329
13
z1
#10102025
11
z3
#10223546
10
z1
#10234366
11
z0
#10234574
1'
z#
#10234589
1.
z,
#10235507
1#
z'
#10235655
1,
z.
#10237211
10
z1
#10243167
11
z0
#11343430
1(
z#
#11346340
1#
z(
#11473549
10
z1
#11484396
11
z0
#11484589
1"
z#
#11484592
1)
z,
#11487196
10
z1
