ovp_platform/platform_2_tlb/platform.vcd
$version
Imperas Tools
$end
$comment merged vcds for all cores $end
$timescale 8ns $end
$scope module platform $end
 $var wire 1 ! cpu0_7_uC/OS-II_Idle $end
 $var wire 1 " cpu0_5_for_loop_100000_0 $end
 $var wire 1 # cpu0_0_None $end
 $var wire 1 $ cpu0_6_uC/OS-II_Stat $end
 $var wire 1 % cpu0_4_for_loop_50000_50000 $end
 $var wire 1 & cpu1_4_uC/OS-II_Stat $end
 $var wire 1 ' cpu1_3_for_loop_100000_0 $end
 $var wire 1 ( cpu1_0_None $end
 $var wire 1 ) cpu1_5_uC/OS-II_Idle $end
 $var wire 1 * cpum_3_dma $end
 $var wire 1 + cpum_0_None $end
 $var wire 1 , cpum_5_uC/OS-II_Idle $end
 $var wire 1 - cpum_4_uC/OS-II_Stat $end
$upscope $end
$enddefinitions $end
#0
x!
x"
x%
x$
x#
x'
x&
x)
x(
x,
x-
x*
x+
#109633
1'
z(
#110130
1&
z'
#110512
1%
z#
#110685
1)
z&
#1206313
1"
z%
#1206797
1$
z"
#1207352
1!
z$
#2998031
1*
z+
#2998299
1-
z*
#2998489
1,
z-
#3098525
1*
z,
#3114549
1,
z*
#3114575
1'
z)
#3114582
1"
z!
#4723212
1)
z'
#4723960
1!
z"
#4724764
1*
z,
#4730747
1,
z*
#8592123
1%
z!
#10144943
1!
z%
#10598525
1*
z,
#10612075
1'
z)
#10612081
1"
z!
#10612293
1,
z*
#12220708
1)
z'
#12221455
1!
z"
#12222262
1*
z,
#12229010
1,
z*
#17592123
1%
z!
#18098506
1*
z,
#18112082
1'
z)
#18112274
1,
z*
#18473498
1"
z%
#19720715
1)
z'
#20082220
1!
z"
#20083532
1*
z,
#20089515
1,
z*
#25090816
1&
z)
#25091554
1)
z&
#25598512
1*
z,
#25612070
1"
z!
#25612093
1'
z)
#25612280
1,
z*
#25967181
1%
z"
#27220726
1)
z'
#27348964
1"
z%
#27973300
1-
z,
#27973500
1,
z-
#28603707
1$
z"
#28604485
1!
z$
#28604691
1*
z,
#28619506
1,
z*
#28619602
1'
z)
#28619731
1"
z!
#30228235
1)
z'
#30229105
1!
z"
#30229775
1*
z,
#30235758
1,
z*
#33098524
1*
z,
#33112083
1'
z)
#33112086
1"
z!
#33112292
1,
z*
#34720716
1)
z'
#34721460
1!
z"
#34722262
1*
z,
#34729010
1,
z*
#40598526
1*
z,
#40612075
1'
z)
#40612086
1"
z!
#40612294
1,
z*
#42220708
1)
z'
#42221356
1!
z"
#42222262
1*
z,
#42229010
1,
z*
#48098506
1*
z,
#48112078
1"
z!
#48112084
1'
z)
#48112274
1,
z*
#49720717
1)
z'
#49721348
1!
z"
#49722264
1*
z,
#49729012
1,
z*
#50090816
1&
z)
#50091554
1)
z&
#52973286
1-
z,
#52973486
1,
z-
#53592128
1$
z!
#53592866
1!
z$
#55598517
1*
z,
#55612070
1"
z!
#55612095
1'
z)
#55612285
1,
z*
#57220728
1)
z'
#57221340
1!
z"
#57222282
1*
z,
#57229030
1,
z*
#63098519
1*
z,
#63112081
1'
z)
#63112087
1"
z!
#63112287
1,
z*
#64720714
1)
z'
#64721357
1!
z"
#64722262
1*
z,
#64729010
1,
z*
#70598521
1*
z,
#70612075
1'
z)
#70612079
1"
z!
#70612289
1,
z*
#72220708
1)
z'
#72221349
1!
z"
#72222262
1*
z,
#72229010
1,
z*
#75090824
1&
z)
#75091562
1)
z&
#77973299
1-
z,
#77973499
1,
z-
#78098510
1*
z,
