ovp_platform/platform_2_tlb/platform.vcd
$version
Imperas Tools
$end
$comment merged vcds for all cores $end
$timescale 8ns $end
$scope module platform $end
 $var wire 1 ! cpu0_7_for_loop_100000_0 $end
 $var wire 1 " cpu0_9_for_loop_80000_0 $end
 $var wire 1 # cpu0_0_None $end
 $var wire 1 $ cpu0_8_for_loop_90000_0 $end
 $var wire 1 % cpu0_6_for_loop_50000_50000 $end
 $var wire 1 & cpu0_10_uC/OS-II_Stat $end
 $var wire 1 ' cpu0_11_uC/OS-II_Idle $end
 $var wire 1 ( cpu1_6_for_loop_90000_0 $end
 $var wire 1 ) cpu1_0_None $end
 $var wire 1 * cpu1_5_for_loop_100000_0 $end
 $var wire 1 + cpu1_8_uC/OS-II_Stat $end
 $var wire 1 , cpu1_7_for_loop_80000_0 $end
 $var wire 1 - cpu1_9_uC/OS-II_Idle $end
 $var wire 1 . cpum_3_dma $end
 $var wire 1 / cpum_0_None $end
 $var wire 1 0 cpum_5_uC/OS-II_Idle $end
 $var wire 1 1 cpum_4_uC/OS-II_Stat $end
$upscope $end
$enddefinitions $end
#0
x%
x$
x!
x&
x'
x"
x#
x,
x+
x*
x(
x-
x)
x1
x0
x.
x/
#111805
1*
z)
#112248
1(
z*
#112694
1%
z#
#112709
1,
z(
#113226
1+
z,
#113781
1-
z+
#1209279
1!
z%
#1209709
1$
z!
#1210170
1"
z$
#1210687
1&
z"
#1211242
1'
z&
#7328418
1.
z/
#7328684
11
z.
#7328874
10
z1
#7348760
1.
z0
#7362069
1!
z'
#7362075
1*
z-
#7387684
10
z.
#8592279
1%
z!
#8973032
1(
z*
#10148215
1!
z%
#10421630
1,
z(
#10530257
1$
z!
#10530956
1.
z0
#10536912
10
z.
#11709533
1-
z,
#11980232
1"
z$
#11980982
1.
z0
#11986944
10
z.
#13268705
1'
z"
#13269786
1.
z0
#13275753
10
z.
#16723528
1.
z0
#16734502
10
z.
#16734599
1"
z'
#16734612
1,
z-
#17592309
1%
z"
#18022475
1-
z,
#18475082
1"
z%
#18598536
1.
z0
#18609489
10
z.
#18609497
1!
z"
#18609577
1*
z-
#20219488
1-
z*
#20222286
1"
z!
#20224162
1.
z0
#20230118
10
z.
#20520252
1'
z"
#20521045
1.
z0
#20527012
10
z.
#25090925
1+
z-
#25091663
1-
z+
#25967229
1%
z'
#26098650
1.
z0
#26109597
1(
z-
#26120375
10
z.
#27349259
1$
z%
#27558635
1,
z(
#28798356
1"
z$
#28799732
1.
z0
#28805694
10
z.
#28847231
1-
z,
#29848551
1.
z0
#29859416
10
z.
#29859497
1!
z"
#29859572
1*
z-
#31469483
1-
z*
#31472182
1"
z!
#31474120
1.
z0
#31480076
10
z.
#31700502
1&
z"
#31701037
1.
z0
#31701280
1'
z&
#31707004
10
z.
#32223322
11
z0
#32223522
10
z1
#34842223
1%
z'
#35473539
1.
z0
#35484513
10
z.
#35484617
1,
z-
#35760815
1"
z%
#36772480
1-
z,
#37049248
1'
z"
#37049793
1.
z0
#37055760
10
z.
#41098532
1.
z0
#41109451
10
z.
#41109575
1!
z'
#41109583
1*
z-
#42719494
1-
z*
#42720227
1'
z!
#42720965
1.
z0
#42727718
10
z.
#43217234
1%
z'
#44368215
1'
z%
#44848636
1.
z0
#44859603
1$
z'
#44859606
1(
z-
#44870361
10
z.
#46308644
1,
z(
#46309265
1"
z$
#46309743
1.
z0
#46315705
10
z.
#47597240
1-
z,
#47598488
1'
z"
#47599785
1.
z0
#47605752
10
z.
#50090932
1+
z-
#50091670
1-
z+
#51842221
1%
z'
#52348536
1.
z0
#52359455
10
z.
#52359572
1*
z-
#52674829
1!
z%
#53969483
1-
z*
#54223532
1.
z0
#54234486
10
z.
#54234622
1,
z-
#54285975
1"
z!
#54287206
1.
z0
#54293162
10
z.
#55522485
1-
z,
#55574448
1'
z"
#55576035
1.
z0
#55582002
10
z.
#56592226
1&
z'
#56592964
1'
z&
#57223321
11
z0
#57223521
10
z1
#60092222
1%
z'
#60917137
1'
z%
#63598744
1.
z0
#63609587
1!
z'
#63609589
1*
z-
#63631202
10
z.
#65220462
1(
z*
#65221195
1$
z!
#65222216
1.
z0
#65228977
10
z.
#66669060
1,
z(
#66670420
1"
z$
#66670976
1.
z0
#66676938
10
z.
#67956963
1-
z,
#67958893
1'
z"
#67959785
1.
z0
#67965752
10
z.
#68342221
1%
z'
#69342476
1'
z%
#72973546
1.
z0
#72984520
10
z.
#72984601
1"
z'
#72984602
1,
z-
#74272465
1-
z,
#74273034
1'
z"
#74274786
1.
z0
#74280753
10
z.
#74848528
1.
z0
#74859447
10
z.
#74859577
1!
z'
#74859588
1*
z-
#76469444
1+
z*
#76470222
1-
z+
#76470229
1'
z!
#76470960
1.
z0
#76477713
10
z.
#76842236
1%
z'
#78050961
1'
z%
#81592221
1&
z'
#81592959
1'
z&
#82223334
11
z0
#82223534
10
z1
#82348646
1.
z0
#82359584
1$
z'
#82359599
1(
z-
#82370371
10
z.
#83808637
1,
z(
#83809246
1"
z$
#83809729
1.
z0
#83815691
10
z.
#85097233
1-
z,
#85098469
1'
z"
#85099798
1.
z0
#85105765
10
z.
#85467221
1%
z'
#86098547
1.
z0
#86109466
10
z.
#86109572
1*
z-
#86434683
1!
z%
#87719483
1-
z*
#88045335
1'
z!
#88045956
1.
z0
#88051912
10
z.
#91723528
1.
z0
#91734502
10
z.
#91734607
1"
z'
#91734619
1,
z-
#93022482
1-
z,
#93023040
1'
z"
#93024792
1.
z0
#93030759
10
z.
#93842238
1%
z'
#95347780
1'
z%
#97348537
1.
z0
#97359456
10
z.
#97359569
1!
z'
#97359585
1*
z-
#98969496
1-
z*
#98970221
1'
z!
#98970970
1.
z0
#98977723
10
z.
#101098636
1.
z0
#101109587
1(
z-
#101109588
1$
z'
#101120361
10
z.
#102558594
1,
z(
#102559250
1"
z$
#102559726
1.
z0
#102565688
10
z.
#102842309
1%
z"
#103847102
1+
z,
#103847880
1-
z+
#104200283
1"
z%
#105207037
1'
z"
#105208535
1.
z0
#105214502
10
z.
#106592221
1&
z'
#106592959
1'
z&
#107223324
11
z0
#107223524
10
z1
#108598539
1.
z0
#108609458
10
z.
#108609569
1!
z'
#108609586
1*
z-
#110219497
1-
z*
#110220221
1'
z!
#110220972
1.
z0
#110227725
10
z.
#110473528
1.
z0
#110484502
10
z.
#110484599
1"
z'
#110484609
1,
z-
#111592309
1%
z"
#111772472
1-
z,
#112474858
1"
z%
#112656171
1'
z"
#112657285
1.
z0
#112663252
10
z.
#119848761
1.
z0
#119859569
1!
z'
#119859576
1*
z-
#119881219
10
z.
#119967279
1%
z!
#121068178
1!
z%
#121470449
1(
z*
#122572636
1$
z!
#122573458
1.
z0
#122579414
10
z.
#122919047
1,
z(
#124022611
1"
z$
#124023492
1.
z0
#124029454
10
z.
#124206950
1-
z,
#125311136
1'
z"
#125312290
1.
z0
#125318257
10
z.
#128467221
1%
z'
#128840918
1+
z-
#128841656
1-
z+
#129223528
1.
z0
#129234502
10
z.
#129234602
1,
z-
#129338431
1"
z%
#130522465
1-
z,
#130627614
1'
z"
#130628546
1.
z0
#130634513
10
z.
#131098540
1.
z0
#131109459
10
z.
#131109572
1!
z'
1*
z-
#132223327
11
z0
#132223527
10
z1
#132719483
1-
z*
#132720185
1&
z!
#132720960
1.
z0
#132720963
1'
z&
#132727713
10
z.
#136717234
1%
z'
#138335810
1'
z%
#138598636
1.
z0
#138609589
1(
z-
#138609601
1$
z'
#138620361
10
z.
#140058627
1,
z(
#140059263
1"
z$
#140059742
1.
z0
#140065704
10
z.
#141347223
1-
z,
#141348486
1'
z"
#141349785
1.
z0
#141355752
10
z.
#142348531
1.
z0
#142359450
10
z.
#142359569
1!
z'
#142359585
1*
z-
#143969496
1-
z*
#143970221
1'
z!
#143970964
1.
z0
#143977717
10
z.
#145717221
1%
z'
#147282625
1'
z%
#147973528
1.
z0
#147984564
10
z.
#147984609
1,
z-
#147984616
1"
z'
#149272472
1-
z,
#149273049
1'
z"
#149274797
1.
z0
#149280764
10
z.
#153598542
1.
z0
#153609461
10
z.
#153609569
1!
z'
#153609575
1*
z-
#154717279
1%
z!
#155219431
1+
z*
#155220209
1-
z+
#155765462
1!
z%
#156268964
1'
z!
#156269719
1.
z0
#156275675
10
z.
#157223323
11
z0
#157223523
10
z1
#157348640
1.
z0
#157359584
1$
z'
#157359587
1(
z-
#157370369
10
z.
#158808625
1,
z(
#158809215
1"
z$
#158809726
1.
z0
#158815688
10
z.
#160097221
1-
z,
#160098350
1&
z"
#160099128
1'
z&
#160099795
1.
z0
#160105762
10
z.
#163217230
1%
z'
#164259357
1'
z%
#164848548
1.
z0
#164859467
10
z.
#164859577
1!
z'
#164859582
1*
z-
#166469493
1-
z*
#166470229
1'
z!
#166470956
1.
z0
#166477709
10
z.
#166723537
1.
z0
#166734511
10
z.
#166734605
1,
z-
#166734611
1"
z'
#168022468
1-
z,
#168023044
1'
z"
#168024785
1.
z0
#168030752
10
z.
#171717221
1%
z'
#172866106
1'
z%
#176098744
1.
z0
#176109572
1*
z-
#176109588
1!
z'
#176131202
10
z.
#177720445
1(
z*
#177721196
1$
z!
#177722220
1.
z0
#177728981
10
z.
#179169043
1,
z(
#179170421
1"
z$
#179170978
1.
z0
#179176940
10
z.
#180342309
1%
z"
#180456971
1+
z,
#180457749
1-
z+
#181855395
1"
z%
#181973320
1'
z"
#181974802
1.
z0
#181980769
10
z.
#182223315
11
z0
#182223515
10
z1
#185092224
1&
z'
#185092962
1'
z&
#185473531
1.
z0
#185484505
10
z.
#185484599
1"
z'
#185484615
1,
z-
#186772478
1-
z,
#186773032
1'
z"
#186774800
1.
z0
#186780767
10
z.
#187348541
1.
z0
#187359460
10
z.
#187359571
1!
z'
#187359580
1*
z-
#188969491
1-
z*
#188970223
1'
z!
#188970974
1.
z0
#188977727
10
z.
#189342230
1%
z'
#190660026
1'
z%
#194848644
1.
z0
#194859596
1$
z'
#194859604
1(
z-
#194870369
10
z.
#196308642
1,
z(
#196309258
1"
z$
#196309727
1.
z0
#196315689
10
z.
#197597238
1-
z,
#197598481
1'
z"
#197599796
1.
z0
#197605763
10
z.
#198092240
1%
z'
#198598545
1.
z0
#198609464
10
z.
#198609572
1*
z-
#199604021
1!
z%
#200219483
1-
z*
#201213923
1'
z!
#201214720
1.
z0
#201220676
10
z.
#204223541
1.
z0
#204234515
10
z.
#204234602
1,
z-
#204234608
1"
z'
#205522490
1+
z,
#205524785
1.
z0
