ovp_platform/platform_2_tlb/platform.vcd
$version
Imperas Tools
$end
$comment merged vcds for all cores $end
$timescale 8ns $end
$scope module platform $end
 $var wire 1 ! cpu0_uC/OS-II_Idle $end
 $var wire 1 " cpu0_uC/OS-II_Stat $end
 $var wire 1 # cpu0_for_loop_50000 $end
 $var wire 1 $ cpu0_for_loop_0 $end
 $var wire 1 % cpu0_None $end
 $var wire 1 & cpu1_None $end
 $var wire 1 ' cpu1_for_loop_0 $end
 $var wire 1 ( cpu1_uC/OS-II_Idle $end
 $var wire 1 ) cpu1_uC/OS-II_Stat $end
 $var wire 1 * cpum_dma $end
 $var wire 1 + cpum_uC/OS-II_Idle $end
 $var wire 1 , cpum_None $end
 $var wire 1 - cpum_uC/OS-II_Stat $end
$upscope $end
$enddefinitions $end
#0
x!
x#
x$
x"
x%
x(
x'
x)
x&
x+
x-
x*
x,
#109657
1'
z&
#110155
1)
z'
#110537
1#
z%
#110710
1(
z)
#114679
1*
z,
#114945
1-
z*
#115135
1+
z-
#223507
1*
z+
#236534
1+
z*
#237078
1'
z(
#1324380
1$
z#
#3033063
1(
z'
#3124467
1"
z$
#3125022
1!
z"
#3125974
1*
z+
#3131930
1+
z*
#3973490
1*
z+
#3984257
1+
z*
#3984565
1'
z(
#3984628
1$
z!
#4980247
1#
z$
#5676212
1(
z'
#6244959
1$
z#
#7038403
1!
z$
#7039724
1*
z+
#7045680
1+
z*
#7723496
1*
z+
#7734263
1+
z*
#7734572
1'
z(
#7734622
1$
z!
#9426458
1(
z'
#9522726
1!
z$
#9523475
1*
z+
#9529431
1+
z*
#11473497
1*
z+
#11484264
1+
z*
#11484561
1'
z(
#11484636
1$
z!
#13176315
1(
z'
#13272864
1!
z$
#13273476
1*
z+
#13279432
1+
z*
#15223498
1*
z+
#15234265
1+
z*
#15234561
1'
z(
#15234629
1$
z!
#16926333
1(
z'
#17022733
1!
z$
#17023477
1*
z+
#17029433
1+
z*
#18973499
1*
z+
#18984266
1+
z*
#18984571
1'
z(
#18984619
1$
z!
#20676207
1(
z'
#20772902
1!
z$
#20773478
1*
z+
#20779434
1+
z*
#22723500
1*
z+
#22734267
1+
z*
#22734567
1'
z(
#22734633
1$
z!
#24426464
1(
z'
#24522737
1!
z$
#24523479
1*
z+
#24529435
1+
z*
#25090808
1)
z(
#25091546
1(
z)
#25098285
1-
z+
#25098485
1+
z-
#26473490
1*
z+
#26484257
1+
z*
#26484561
1'
z(
#26484619
1$
z!
#28176208
1(
z'
#28272872
1"
z$
#28273474
1*
z+
#28273650
1!
z"
#28279430
1+
z*
#30223490
1*
z+
#30234257
1+
z*
#30234566
1'
z(
#30234620
1$
z!
#31926445
1(
z'
#32022724
1!
z$
#32023474
1*
z+
#32029430
1+
z*
#33973490
1*
z+
#33984257
1+
z*
#33984573
1'
z(
#33984634
1$
z!
#35676209
1(
z'
#35772917
1!
z$
#35773474
1*
z+
#35779430
1+
z*
#37723491
1*
z+
