ovp_platform/platform_2_tlb/platform.vcd
$version
Imperas Tools
$end
$comment merged vcds for all cores $end
$timescale 8ns $end
$scope module platform $end
 $var wire 1 ! cpu0_uC/OS-II_Idle $end
 $var wire 1 " cpu0_uC/OS-II_Stat $end
 $var wire 1 # cpu0_for_loop_50000 $end
 $var wire 1 $ cpu0_for_loop_0 $end
 $var wire 1 % cpu0_None $end
 $var wire 1 & cpu1_None $end
 $var wire 1 ' cpu1_for_loop_0 $end
 $var wire 1 ( cpu1_uC/OS-II_Idle $end
 $var wire 1 ) cpu1_uC/OS-II_Stat $end
 $var wire 1 * cpum_dma $end
 $var wire 1 + cpum_uC/OS-II_Idle $end
 $var wire 1 , cpum_None $end
 $var wire 1 - cpum_uC/OS-II_Stat $end
$upscope $end
$enddefinitions $end
#0
x!
x#
x$
x"
x%
x(
x'
x)
x&
x+
x-
x*
x,
#109657
1'
z&
#110155
1)
z'
#110537
1#
z%
#110710
1(
z)
#114679
1*
z,
#114945
1-
z*
#115135
1+
z-
#223507
1*
z+
#236534
1+
z*
#237078
1'
z(
#1324380
1$
z#
#3028034
1(
z'
#3124467
1"
z$
#3125022
1!
z"
#3125974
1*
z+
#3131930
1+
z*
#3973490
1*
z+
#3984257
1+
z*
#3984561
1'
z(
#3984628
1$
z!
#4980247
1#
z$
#5676208
1(
z'
#6926141
1$
z#
#7732832
1!
z$
#7733474
1*
z+
#7739430
1+
z*
#7848504
1*
z+
#7859271
1+
z*
#7859571
1'
z(
#7859622
1$
z!
#9551332
1(
z'
#9647094
1!
z$
#9648483
1*
z+
#9654439
1+
z*
#10592180
1#
z!
#11563911
1!
z#
#11598505
1*
z+
#11609272
1+
z*
#11609576
1'
z(
#11609634
1$
z!
#13301304
1(
z'
#13397158
1!
z$
#13398484
1*
z+
#13404440
1+
z*
#15217196
1#
z!
#15348506
1*
z+
#15359273
1+
z*
#15359577
1'
z(
#16756274
1$
z#
#18453925
1(
z'
#18543610
1!
z$
#18544731
1*
z+
#18550687
1+
z*
#19098493
1*
z+
#19109260
1+
z*
#19109561
1'
z(
#19109619
1$
z!
#20480341
1#
z$
#20801208
1(
z'
#21633162
1$
z#
#22050824
1!
z$
#22052231
1*
z+
#22058187
1+
z*
#22848501
1*
z+
#22859268
1+
z*
#22859563
1'
z(
#22859630
1$
z!
#24551460
1(
z'
#24647102
1!
z$
#24648480
1*
z+
#24654436
1+
z*
#25090814
1)
z(
#25091552
1(
z)
#25098291
1-
z+
#25098491
1+
z-
#25342188
1#
z!
#26598490
1*
z+
#26609257
1+
z*
#26609561
1'
z(
#26624578
1$
z#
#28316304
1(
z'
#28411875
1"
z$
#28412653
1!
z"
#28413490
1*
z+
#28419446
1+
z*
#30342180
1#
z!
#30348490
1*
z+
#30359257
1+
z*
#30359578
1'
z(
#31265671
1$
z#
#32961347
1(
z'
#33052537
1!
z$
#33053477
1*
z+
#33059433
1+
z*
#34098490
1*
z+
#34109257
1+
z*
#34109569
1'
z(
#34109635
1$
z!
#34980120
1#
z$
#35801216
1(
z'
#36012570
1$
z#
#36930860
1!
z$
#36932224
1*
z+
#36938180
1+
z*
#37848494
1*
z+
#37859261
1+
z*
#37859576
1'
z(
#37859639
1$
z!
#39551337
1(
z'
#39647907
1!
z$
#39648474
1*
z+
#39654430
1+
z*
#39717198
1#
z!
#40820852
1!
z#
#41598495
1*
z+
#41609262
1+
z*
#41609581
1'
z(
#41609619
1$
z!
#43301217
1(
z'
#43397091
1!
z$
#43398474
1*
z+
#43404430
1+
z*
#44467184
1#
z!
#45348496
1*
z+
#45359263
1+
z*
#45359577
1'
z(
#45807318
1$
z#
#47509203
1(
z'
#47607412
1!
z$
#47608480
1*
z+
#47614436
1+
z*
#49098490
1*
z+
#49109257
1+
z*
#49109569
1'
z(
#49109619
1$
z!
#49479884
1#
z$
#50098300
1-
z+
#50098500
1+
z-
#50678139
1$
z#
#50801209
1)
z'
#50801987
1(
z)
#52109543
1!
z$
#52110974
1*
z+
#52116930
1+
z*
#52848490
1*
z+
#52859257
1+
z*
#52859561
1'
z(
#52859632
1$
z!
#54355388
1#
z$
#54551333
1(
z'
#56254512
1$
z#
#56547241
1"
z$
#56548019
1!
z"
#56548474
1*
z+
#56554430
1+
z*
#56598490
1*
z+
#56609257
1+
z*
#56609569
1'
z(
#56609635
1$
z!
#58301216
1(
z'
#58397975
1!
z$
#58398494
1*
z+
#58404450
1+
z*
#59967180
1#
z!
#60348490
1*
z+
#60359257
1+
z*
#60359576
1'
z(
#61468326
1$
z#
#63168160
1(
z'
#63256109
1!
z$
#63257224
1*
z+
#63263180
1+
z*
#64098495
1*
z+
#64109262
1+
z*
#64109570
1'
z(
#64109631
1$
z!
#65230262
1#
z$
#65801217
1(
z'
#66318962
1$
z#
#67000422
1!
z$
#67000990
1*
z+
#67006946
1+
z*
#67848503
1*
z+
