ovp_platform/platform_2_tlb/platform.vcd
$version
Imperas Tools
$end
$comment merged vcds for all cores $end
$timescale 8ns $end
$scope module platform $end
 $var wire 1 ! cpu0_uC/OS-II_Stat $end
 $var wire 1 " cpu0_TransmissionControl $end
 $var wire 1 # cpu0_AirbagModel $end
 $var wire 1 $ cpu0_FuelSensor $end
 $var wire 1 % cpu0_for_loop $end
 $var wire 1 & cpu0_CruiseControlSystem $end
 $var wire 1 ' cpu0_uC/OS-II_Idle $end
 $var wire 1 ( cpu0_None $end
 $var wire 1 ) cpu0_RadarTracker $end
 $var wire 1 * cpu1_None $end
 $var wire 1 + cpu1_CollisionAvoidance $end
 $var wire 1 , cpu1_uC/OS-II_Idle $end
 $var wire 1 - cpu1_AirbagModel $end
 $var wire 1 . cpu1_CruiseControlSystem $end
 $var wire 1 / cpu1_uC/OS-II_Stat $end
 $var wire 1 0 cpu1_RadarTracker $end
 $var wire 1 1 cpum_None $end
 $var wire 1 2 cpum_uC/OS-II_Idle $end
 $var wire 1 3 cpum_TractionControl $end
 $var wire 1 4 cpum_Derivative $end
 $var wire 1 5 cpum_dma $end
 $var wire 1 6 cpum_uC/OS-II_Stat $end
$upscope $end
$enddefinitions $end
#0
x#
x)
x&
x!
x$
x%
x"
x'
x(
x.
x-
x+
x0
x/
x,
x*
x4
x5
x2
x3
x6
x1
#112798
1-
z*
#113242
1.
z-
#113738
1+
z.
#114534
1#
z(
#114979
1&
z#
#115476
1$
z&
#116389
10
z+
#116907
1/
z0
#117287
15
z1
#117462
1,
z/
#117546
14
z5
#118138
1"
z$
#120769
1)
z"
#121120
13
z4
#121281
1%
z)
#124797
16
z3
#124987
12
z6
#223831
15
z2
#237059
1#
z%
#237062
1-
z,
#238073
1%
z#
#238143
1,
z-
#250824
1&
z%
#250843
1.
z,
#251770
1%
z&
#251900
1,
z.
#264589
1)
z%
#264593
10
z,
#275689
12
z5
#320572
1%
z)
#320694
1,
z0
#322285
15
z2
#328252
12
z5
#1323188
1!
z%
#1323743
1'
z!
#1971080
1"
z'
#1973939
1'
z"
#2723606
15
z2
#2734483
12
z5
#2734574
1&
z'
#2734583
1.
z,
#2735520
1'
z&
#2735651
1,
z.
#2737238
15
z2
#2743200
12
z5
#2846088
1%
z'
#3848396
13
z2
#3851158
1"
z%
#3852092
12
z3
#3854017
1%
z"
#4463874
1'
z%
#5098407
14
z2
#5102014
12
z4
#5223616
15
z2
#5234493
12
z5
#5234574
1&
z'
#5234597
1.
z,
#5235520
1'
z&
#5235654
1,
z.
#5237248
15
z2
#5243210
12
z5
#5721085
1"
z'
#5723944
1'
z"
#5971094
1%
z'
#6473614
15
z2
#6484425
12
z5
#6484559
1#
z%
#6484578
1-
z,
#6485489
1%
z#
#6485641
1,
z-
#6487218
15
z2
#6493174
12
z5
#6888645
1'
z%
#7596083
1"
z'
#7598399
13
z2
#7598942
1'
z"
#7602095
12
z3
#7723610
15
z2
#7734487
12
z5
#7734574
1&
z'
#7734580
1.
z,
#7735520
1'
z&
#7735659
1,
z.
#7737242
15
z2
#7743204
12
z5
#8471091
1%
z'
#9476191
1$
z%
#9479047
1"
z$
#9481906
1%
z"
#9913696
1'
z%
#10098408
14
z2
#10102015
12
z4
#10223617
15
z2
#10234494
12
z5
#10234574
1&
z'
#10234577
1.
z,
#10235520
1'
z&
#10235656
1,
z.
#10237249
15
z2
#10243211
12
z5
#11346096
1"
z'
#11348407
13
z2
#11348955
1'
z"
#11352103
12
z3
#11471086
1%
z'
#12422954
1'
z%
#12592227
1+
z,
#12595106
1,
z+
#12723734
15
z2
#12734564
1#
z'
#12734577
1-
z,
#12735494
1'
z#
#12735640
1,
z-
#12745824
1&
z'
#12745827
1.
z,
#12746770
1'
z&
#12746906
1,
z.
#12758291
12
z5
#13221084
1"
z'
#13223943
1'
z"
#13971082
1%
z'
#15098426
14
z2
#15101088
1"
z%
#15102019
13
z4
#15103947
1%
z"
#15105715
12
z3
#15168687
1'
z%
#15223606
15
z2
#15234483
12
z5
#15234574
1&
z'
#15234597
1.
z,
#15235520
1'
z&
#15235654
1,
z.
#15237235
15
z2
#15243197
12
z5
#16721089
1%
z'
#16976158
1"
z%
#16979017
1%
z"
#17585572
1'
z%
#17723606
15
z2
#17734483
12
z5
#17734577
1.
z,
#17734594
1&
z'
#17735540
1'
z&
#17735656
1,
z.
#17737236
15
z2
#17743198
12
z5
#18846122
1$
z'
#18848394
13
z2
#18848978
1"
z$
#18851837
1'
z"
#18852090
12
z3
#18973606
15
z2
#18984417
12
z5
#18984574
1-
z,
#18984575
1#
z'
#18985505
1'
z#
#18985637
1,
z-
#18987215
15
z2
#18993171
12
z5
#19096077
1%
z'
#19949720
1'
z%
#20098393
14
z2
#20102000
12
z4
#20223606
15
z2
#20234483
12
z5
#20234577
1&
z'
1.
z,
#20235523
1'
z&
#20235656
1,
z.
#20237235
15
z2
#20243197
12
z5
#20721093
1"
z'
#20723952
1'
z"
#21471091
1%
z'
#22510302
1'
z%
#22596096
1"
z'
#22598397
13
z2
#22598955
1'
z"
#22602093
12
z3
#22723608
15
z2
#22734485
12
z5
#22734577
1.
z,
#22734579
1&
z'
#22735525
1'
z&
#22735656
1,
z.
#22737240
15
z2
#22743202
12
z5
#24096083
1%
z'
#24476088
1"
z%
#24478947
1%
z"
#25092256
1+
z,
#25095135
1/
z+
#25095873
1,
z/
#25098439
14
z2
#25102046
16
z4
#25102246
12
z6
#25223724
15
z2
#25234559
1#
z%
#25234562
1-
z,
#25235489
1%
z#
#25235636
1,
z-
#25245824
1&
z%
#25245827
1.
z,
#25246770
1%
z&
#25246906
1,
z.
#25258281
12
z5
#25362191
1'
z%
#26221096
1!
z'
#26221834
1'
z!
#26346082
1"
z'
#26348397
13
z2
#26348941
1'
z"
#26352093
12
z3
#26971090
1%
z'
#27723616
15
z2
#27734493
12
z5
#27734574
1&
z%
#27734592
1.
z,
#27735520
1%
z&
#27735660
1,
z.
#27737248
15
z2
#27743210
12
z5
#27979573
1'
z%
#28221130
1$
z'
#28223986
1"
z$
#28226845
1'
z"
#29596092
1%
z'
#30098426
14
z2
#30101088
1"
z%
#30102019
13
z4
#30103947
1%
z"
#30105715
12
z3
#30223626
15
z2
#30234503
12
z5
#30234574
1&
z%
#30234577
1.
z,
#30235520
1%
z&
#30235656
1,
z.
#30237235
15
z2
#30243197
12
z5
#31167010
1'
z%
#31473624
15
z2
#31484435
12
z5
#31484565
1#
z'
#31484580
1-
z,
#31485495
1'
z#
#31485643
1,
z-
#31487228
15
z2
#31493184
12
z5
#31971094
1"
z'
#31973953
1'
z"
#32721092
1%
z'
#32723617
15
z2
#32734494
12
z5
#32734574
1&
z%
#32734582
1.
z,
#32735520
1%
z&
#32735650
1,
z.
#32737249
15
z2
#32743211
12
z5
#33848407
13
z2
#33851158
1"
z%
#33852103
12
z3
#33854017
1%
z"
#34138576
1'
z%
#35098393
14
z2
#35102000
12
z4
#35223606
15
z2
#35234483
12
z5
#35234593
1&
z'
#35234596
1.
z,
#35235539
1'
z&
#35235653
1,
z.
#35237235
15
z2
#35243197
12
z5
#35721113
1"
z'
#35723972
1%
z"
#36639280
1'
z%
#37592225
1+
z,
#37595104
1,
z+
#37596122
1$
z'
#37598396
13
z2
#37598978
1"
z$
#37601837
1'
z"
#37602092
12
z3
#37723827
15
z2
#37734575
1#
z'
1-
z,
#37735505
1'
z#
#37735638
1,
z-
#37745827
1.
z,
#37745831
1&
z'
#37746777
1'
z&
#37746906
1,
z.
#37757089
1)
z'
#37757100
10
z,
#37769065
12
z5
#37813079
1'
z)
#37813201
1,
z0
#37814790
15
z2
#37820757
12
z5
#38221077
1%
z'
#39365262
1'
z%
#39471092
1"
z'
#39473951
1'
z"
#40098393
14
z2
#40102000
12
z4
#40223624
15
z2
#40234501
12
z5
#40234577
1.
z,
#40234583
1&
z'
#40235529
1'
z&
#40235656
1,
z.
#40237235
15
z2
#40243197
12
z5
#40971079
1%
z'
#41348393
13
z2
#41351158
1"
z%
#41352089
12
z3
#41354017
1%
z"
#41879787
1'
z%
#42723606
15
z2
#42734483
12
z5
#42734582
1&
z'
#42734597
1.
z,
#42735528
1'
z&
#42735654
1,
z.
#42737236
15
z2
#42743198
12
z5
#43221077
1"
z'
#43223936
1'
z"
#43471078
1%
z'
#43973606
15
z2
#43984417
12
z5
#43984559
1#
z%
#43984578
1-
z,
#43985489
1%
z#
#43985641
1,
z-
#43987235
15
z2
#43993191
12
z5
#45098426
14
z2
#45102019
13
z4
#45105715
12
z3
#45107155
1'
z%
#45223606
15
z2
#45234483
12
z5
#45234580
1.
z,
#45234585
1&
z'
#45235531
1'
z&
#45235659
1,
z.
#45237235
15
z2
#45243197
12
z5
#47723606
15
z2
#47734483
12
z5
#47734574
1&
z'
#47734577
1.
z,
#47735520
1'
z&
#47735656
1,
z.
#47737237
15
z2
#47743199
12
z5
#48848395
13
z2
#48852091
12
z3
#50092260
1+
z,
#50095139
1/
z+
#50095877
1,
z/
#50098439
14
z2
#50102046
16
z4
#50102246
12
z6
#50223724
15
z2
#50234563
1#
z'
#50234565
1-
z,
#50235493
1'
z#
#50235639
1,
z-
#50245824
1&
z'
#50245827
1.
z,
#50246770
1'
z&
#50246906
1,
z.
#50258281
12
z5
#51221054
1!
z'
#51221792
1'
z!
#52598405
13
z2
#52602101
12
z3
#52723616
15
z2
#52734493
12
z5
#52734574
1&
z'
#52734596
1.
z,
#52735520
1'
z&
#52735653
1,
z.
#52737248
15
z2
#52743210
12
z5
#55098393
14
z2
#55102000
12
z4
#55223623
15
z2
#55234500
12
z5
#55234577
1&
z'
1.
z,
#55235523
1'
z&
#55235656
1,
z.
#55237255
15
z2
#55243217
12
z5
#56348413
13
z2
#56352109
12
z3
#56473624
15
z2
#56484435
12
z5
#56484561
1#
z'
#56484573
1-
z,
#56485491
1'
z#
#56485636
1,
z-
#56487228
15
z2
#56493184
12
z5
#57723617
15
z2
#57734494
12
z5
#57734574
1&
z'
#57734577
1.
z,
#57735520
1'
z&
#57735656
1,
z.
#57737249
15
z2
#57743211
12
z5
#60098426
14
z2
#60102019
13
z4
#60105715
12
z3
#60223606
15
z2
#60234545
12
z5
#60234577
1.
z,
#60234580
1&
z'
#60235526
1'
z&
#60235656
1,
z.
#60237235
15
z2
#60243197
12
z5
#62592222
1+
z,
#62595101
1,
z+
#62723716
15
z2
#62734572
1#
z'
1-
z,
#62735502
1'
z#
#62735635
1,
z-
#62745827
1.
z,
#62745828
1&
z'
#62746774
1'
z&
#62746906
1,
z.
#62758273
12
z5
#63848393
13
z2
#63852089
12
z3
#65098400
14
z2
#65102007
12
z4
#65223609
15
z2
#65234486
12
z5
#65234583
1&
z'
#65234592
1.
z,
#65235529
1'
z&
#65235660
1,
z.
#65237241
15
z2
#65243203
12
z5
#67598407
13
z2
#67602103
12
z3
#67723618
15
z2
#67734495
12
z5
#67734577
1.
z,
#67734590
1&
z'
#67735536
1'
z&
#67735656
1,
z.
#67737250
15
z2
#67743212
12
z5
#68973616
15
z2
#68984427
12
z5
#68984574
1#
z'
#68984580
1-
z,
#68985504
1'
z#
#68985643
1,
z-
#68987220
15
z2
#68993176
12
z5
#70098401
14
z2
#70102008
12
z4
#70223610
15
z2
#70234487
12
z5
#70234582
1.
z,
#70234586
1&
z'
#70235532
1'
z&
#70235650
1,
z.
#70237242
15
z2
#70243204
12
z5
#71348400
13
z2
#71352096
12
z3
#72723619
15
z2
#72734496
12
z5
#72734593
1&
z'
#72734596
1.
z,
#72735539
1'
z&
#72735653
1,
z.
#72737251
15
z2
#72743213
12
z5
#75092258
1+
z,
#75095137
1/
z+
#75095875
1,
z/
#75098459
14
z2
#75102052
13
z4
#75105748
16
z3
#75105948
12
z6
#75223822
15
z2
#75234559
1#
z'
#75234563
1-
z,
#75235489
1'
z#
#75235637
1,
z-
#75245827
1.
z,
#75245841
1&
z'
#75246787
1'
z&
#75246906
1,
z.
#75257099
1)
z'
10
z,
#75269064
12
z5
#75313089
1'
z)
#75313200
1,
z0
#75314785
15
z2
#75320752
12
z5
#76221055
1!
z'
#76221793
1'
z!
#77723617
15
z2
#77734494
12
z5
#77734574
1&
z'
#77734577
1.
z,
#77735520
1'
z&
#77735656
1,
z.
#77737249
15
z2
#77743211
12
z5
#78848407
13
z2
#78852103
12
z3
#80098393
14
z2
#80102000
12
z4
#80223606
15
z2
#80234483
12
z5
#80234578
1&
z'
#80234596
1.
z,
#80235524
1'
z&
#80235653
1,
z.
#80237235
15
z2
#80243197
12
z5
#81473625
15
z2
#81484436
12
z5
#81484562
1#
z'
#81484577
1-
z,
#81485492
1'
z#
#81485640
1,
z-
#81487229
15
z2
#81493185
12
z5
#82598410
13
z2
#82602106
12
z3
#82723621
15
z2
#82734498
12
z5
#82734574
1&
z'
#82734579
1.
z,
#82735520
1'
z&
#82735658
1,
z.
#82737253
15
z2
#82743215
12
z5
#85098393
14
z2
#85102000
12
z4
#85223606
15
z2
#85234483
12
z5
#85234577
1.
z,
#85234581
1&
z'
#85235527
1'
z&
#85235656
1,
z.
#85237235
15
z2
#85243197
12
z5
#86348393
13
z2
#86352089
12
z3
#87592226
1+
z,
#87595105
1,
z+
#87723716
15
z2
#87734573
1#
z'
#87734576
1-
z,
#87735503
1'
z#
#87735639
1,
z-
#87745827
1.
z,
#87745829
1&
z'
#87746775
1'
z&
#87746906
1,
z.
#87758273
12
z5
#90098430
14
z2
#90102023
13
z4
#90105719
12
z3
#90223609
15
z2
#90234486
12
z5
#90234584
1&
z'
#90234596
1.
z,
#90235530
1'
z&
#90235653
1,
z.
#90237241
15
z2
#90243203
12
z5
#92723615
15
z2
#92734492
12
z5
#92734577
1.
z,
#92734591
1&
z'
#92735537
1'
z&
#92735656
1,
z.
#92737247
15
z2
#92743209
12
z5
#93848405
13
z2
#93852101
12
z3
#93973616
15
z2
#93984427
12
z5
#93984573
1-
z,
#93984575
1#
z'
#93985505
1'
z#
#93985636
1,
z-
#93987220
15
z2
#93993176
12
z5
#95098401
14
z2
#95102008
12
z4
#95223610
15
z2
#95234487
12
z5
#95234577
1.
z,
#95234587
1&
z'
#95235533
1'
z&
#95235656
1,
z.
#95237242
15
z2
#95243204
12
z5
#97598408
13
z2
#97602104
12
z3
#97723619
15
z2
#97734496
12
z5
#97734577
1.
z,
#97734594
1&
z'
#97735540
1'
z&
#97735656
1,
z.
#97737251
15
z2
#97743213
12
z5
#100092255
1+
z,
#100095134
1/
z+
#100095872
1,
z/
#100098426
14
z2
#100102033
16
z4
#100102233
12
z6
#100223714
15
z2
#100234559
1#
z'
#100234562
1-
z,
#100235489
1'
z#
#100235636
1,
z-
#100245842
1&
z'
#100245847
1.
z,
#100246788
1'
z&
#100246904
1,
z.
#100258271
12
z5
#101221053
1!
z'
#101221791
1'
z!
#101348408
13
z2
#101352104
12
z3
#102723606
15
z2
#102734483
12
z5
#102734577
1.
z,
#102734593
1&
z'
#102735539
1'
z&
#102735656
1,
z.
#102737235
15
z2
#102743197
12
z5
#105098429
14
z2
#105102022
13
z4
#105105718
12
z3
#105223608
15
z2
#105234485
12
z5
#105234574
1&
z'
#105234594
1.
z,
#105235520
1'
z&
#105235651
1,
z.
#105237240
15
z2
#105243202
12
z5
#106473606
15
z2
#106484417
12
z5
#106484559
1#
z'
#106484575
1-
z,
#106485489
1'
z#
#106485638
1,
z-
#106487215
15
z2
#106493171
12
z5
#107723606
15
z2
#107734483
12
z5
#107734574
1&
z'
#107734577
1.
z,
#107735520
1'
z&
#107735656
1,
z.
#107737235
15
z2
#107743197
12
z5
#108848393
13
z2
#108852089
12
z3
#110098400
14
z2
#110102007
12
z4
#110223609
15
z2
#110234486
12
z5
#110234574
1&
z'
#110234577
1.
z,
#110235520
1'
z&
#110235656
1,
z.
#110237241
15
z2
#110243203
12
z5
#112592224
1+
z,
#112595103
1,
z+
#112598407
13
z2
#112602103
12
z3
#112723834
15
z2
#112734566
1#
z'
#112734574
1-
z,
#112735496
1'
z#
#112735637
1,
z-
#112745824
1&
z'
#112745827
1.
z,
#112746770
1'
z&
#112746906
1,
z.
#112757099
10
z,
#112757109
1)
z'
#112769068
12
z5
#112813099
1'
z)
#112813200
1,
z0
#112814793
15
z2
#112820760
12
z5
#115098393
14
z2
#115102000
12
z4
#115223606
15
z2
#115234483
12
z5
#115234577
1.
z,
#115234585
1&
z'
#115235531
1'
z&
#115235656
1,
z.
#115237235
15
z2
#115243197
12
z5
#116348393
13
z2
#116352089
12
z3
#117723607
15
z2
#117734484
12
z5
#117734592
1&
z'
#117734596
1.
z,
#117735538
1'
z&
#117735653
1,
z.
#117737239
15
z2
#117743201
12
z5
#118973606
15
z2
#118984417
12
z5
#118984576
1#
z'
#118984577
1-
z,
#118985506
1'
z#
#118985640
1,
z-
#118987215
15
z2
#118993171
12
z5
#120098426
14
z2
#120102019
13
z4
#120105715
12
z3
#120223606
15
z2
#120234483
12
z5
#120234579
1.
z,
#120234588
1&
z'
#120235534
1'
z&
#120235658
1,
z.
#120237235
15
z2
#120243259
12
z5
#122723612
15
z2
#122734489
12
z5
#122734574
1&
z'
#122734577
1.
z,
#122735520
1'
z&
#122735656
1,
z.
#122737244
15
z2
#122743206
12
z5
#123848402
13
z2
#123852098
12
z3
#125092259
1+
z,
#125095138
1/
z+
#125095876
1,
z/
#125098446
14
z2
#125102053
16
z4
#125102253
12
z6
#125223783
15
z2
#125234559
1#
z'
#125234562
1-
z,
#125235489
1'
z#
#125235636
1,
z-
#125245837
1&
z'
#125245845
1.
z,
#125246783
1'
z&
#125246902
1,
z.
#125258348
12
z5
#126221072
1!
z'
#126221810
1'
z!
#127598393
13
z2
#127602089
12
z3
#127723625
15
z2
#127734502
12
z5
#127734588
1&
z'
#127734596
1.
z,
#127735534
1'
z&
#127735653
1,
z.
#127737235
15
z2
#127743197
12
z5
#130098394
14
z2
#130102001
12
z4
#130223606
15
z2
#130234483
12
z5
#130234574
1&
z'
#130234577
1.
z,
#130235520
1'
z&
#130235656
1,
z.
#130237235
15
z2
#130243197
12
z5
#131348393
13
z2
#131352089
12
z3
#131473606
15
z2
#131484417
12
z5
#131484573
1-
z,
#131484579
1#
z'
#131485509
1'
z#
#131485636
1,
z-
#131487215
15
z2
#131493171
12
z5
#132723626
15
z2
#132734503
12
z5
#132734577
1.
z,
#132734591
1&
z'
#132735537
1'
z&
#132735656
1,
z.
#132737235
15
z2
#132743197
12
z5
#135098428
14
z2
#135102021
13
z4
#135105717
12
z3
#135223607
15
z2
#135234484
12
z5
#135234574
1&
z'
#135234577
1.
z,
#135235520
1'
z&
#135235656
1,
z.
#135237239
15
z2
#135243201
12
z5
#137592222
1+
z,
#137595101
1,
z+
#137723721
15
z2
#137734561
1#
z'
#137734572
1-
z,
#137735491
1'
z#
#137735635
1,
z-
#137745824
1&
z'
#137745827
1.
z,
#137746770
1'
z&
#137746906
1,
z.
#137758278
12
z5
#138848394
13
z2
#138852090
12
z3
#140098405
14
z2
#140102012
12
z4
#140223614
15
z2
#140234491
12
z5
#140234574
1&
z'
#140234592
1.
z,
#140235520
1'
z&
#140235660
1,
z.
#140237246
15
z2
#140243208
12
z5
#142598412
13
z2
#142602108
12
z3
#142723623
15
z2
#142734500
12
z5
#142734577
1.
z,
#142734579
1&
z'
#142735525
1'
z&
#142735656
1,
z.
#142737255
15
z2
#142743217
12
z5
#143973621
15
z2
#143984432
12
z5
#143984563
1#
z'
#143984580
1-
z,
#143985493
1'
z#
#143985643
1,
z-
#143987225
15
z2
#143993181
12
z5
#145098406
14
z2
#145102013
12
z4
#145223615
15
z2
#145234492
12
z5
#145234575
1&
z'
#145234582
1.
z,
#145235521
1'
z&
#145235650
1,
z.
#145237247
15
z2
#145243209
12
z5
#146348405
13
z2
#146352101
12
z3
#147723624
15
z2
#147734501
12
z5
#147734582
1&
z'
#147734596
1.
z,
#147735528
1'
z&
#147735653
1,
z.
#147737235
15
z2
#147743197
12
z5
#150092258
1+
z,
#150095137
1/
z+
#150095875
1,
z/
#150098459
14
z2
#150102052
13
z4
#150105748
16
z3
#150105948
12
z6
#150223822
15
z2
#150234563
1-
z,
#150234574
1#
z'
#150235504
1'
z#
#150235637
1,
z-
#150245827
1.
z,
#150245830
1&
z'
#150246776
1'
z&
#150246906
1,
z.
#150257089
1)
z'
#150257099
10
z,
#150269056
12
z5
#150313079
1'
z)
#150313200
1,
z0
#150314785
15
z2
#150320752
12
z5
#151221073
1!
z'
#151221811
1'
z!
#152723614
15
z2
#152734491
12
z5
#152734577
1.
z,
#152734589
1&
z'
#152735535
1'
z&
#152735656
1,
z.
#152737246
15
z2
#152743208
12
z5
#153848404
13
z2
#153852100
12
z3
#155098393
14
z2
#155102000
12
z4
#155223624
15
z2
#155234501
12
z5
#155234574
1&
z'
#155234596
1.
z,
#155235520
1'
z&
#155235653
1,
z.
#155237235
15
z2
#155243197
12
z5
#156473622
15
z2
#156484433
12
z5
#156484559
1#
z'
#156484577
1-
z,
#156485489
1'
z#
#156485640
1,
z-
#156487226
15
z2
#156493182
12
z5
#157598407
13
z2
#157602103
12
z3
#157723618
15
z2
#157734495
12
z5
#157734579
1.
z,
#157734592
1&
z'
#157735538
1'
z&
#157735658
1,
z.
#157737250
15
z2
#157743212
12
z5
#160098393
14
z2
#160102000
12
z4
#160223625
15
z2
#160234502
12
z5
#160234574
1&
z'
#160234577
1.
z,
#160235520
1'
z&
#160235656
1,
z.
#160237235
15
z2
#160243197
12
z5
#161348393
13
z2
#161352089
12
z3
#162592226
1+
z,
#162595105
1,
z+
#162723714
15
z2
#162734562
1#
z'
#162734576
1-
z,
#162735492
1'
z#
#162735639
1,
z-
#162745824
1&
z'
#162745827
1.
z,
#162746770
1'
z&
#162746906
1,
z.
#162758271
12
z5
#165098427
14
z2
#165102020
13
z4
#165105716
12
z3
#165223606
15
z2
#165234483
12
z5
#165234574
1&
z'
#165234596
1.
z,
#165235520
1'
z&
#165235653
1,
z.
#165237238
15
z2
#165243200
12
z5
#167723612
15
z2
#167734489
12
z5
#167734577
1.
z,
#167734580
1&
z'
#167735526
1'
z&
#167735656
1,
z.
#167737244
15
z2
#167743206
12
z5
#168848402
13
z2
#168852098
12
z3
#168973613
15
z2
#168984424
12
z5
#168984564
1#
z'
#168984573
1-
z,
#168985494
1'
z#
#168985636
1,
z-
#168987217
15
z2
#168993173
12
z5
#170098398
14
z2
#170102005
12
z4
#170223607
15
z2
#170234484
12
z5
#170234576
1&
z'
#170234577
1.
z,
#170235522
1'
z&
#170235656
1,
z.
#170237239
15
z2
#170243201
12
z5
#172598405
13
z2
#172602101
12
z3
#172723616
15
z2
#172734493
12
z5
#172734577
1.
z,
#172734583
1&
z'
#172735529
1'
z&
#172735656
1,
z.
#172737248
15
z2
#172743210
12
z5
#175092255
1+
z,
#175095134
1/
z+
#175095872
1,
z/
#175098426
14
z2
#175102033
16
z4
#175102233
12
z6
#175223736
15
z2
#175234562
1-
z,
#175234575
1#
z'
#175235505
1'
z#
#175235636
1,
z-
#175245831
1&
z'
#175245847
1.
z,
#175246777
1'
z&
#175246904
1,
z.
#175258297
12
z5
#176221066
1!
z'
#176221804
1'
z!
#176348413
13
z2
#176352109
12
z3
#177723606
15
z2
#177734483
12
z5
#177734577
1.
z,
#177734582
1&
z'
#177735528
1'
z&
#177735656
1,
z.
#177737235
15
z2
#177743197
12
z5
#180098434
14
z2
#180102027
13
z4
#180105723
12
z3
#180223613
15
z2
#180234490
12
z5
#180234589
1&
z'
#180234594
1.
z,
#180235535
1'
z&
#180235651
1,
z.
#180237245
15
z2
#180243207
12
z5
#181473611
15
z2
#181484422
12
z5
#181484573
1#
z'
#181484575
1-
z,
#181485503
1'
z#
#181485638
1,
z-
#181487215
15
z2
#181493171
12
z5
#182723606
15
z2
#182734483
12
z5
#182734577
1.
z,
#182734585
1&
z'
#182735531
1'
z&
#182735656
1,
z.
#182737236
15
z2
#182743198
12
z5
#183848394
13
z2
#183852090
12
z3
#185098405
14
z2
#185102012
12
z4
#185223614
15
z2
#185234553
12
z5
#185234577
1.
z,
#185234592
1&
z'
#185235538
1'
z&
#185235656
1,
z.
#185237250
15
z2
#185243212
12
z5
#187592224
1+
z,
#187595103
1,
z+
#187598393
13
z2
#187602089
12
z3
#187723822
15
z2
#187734559
1#
z'
#187734574
1-
z,
#187735489
1'
z#
#187735637
1,
z-
#187745827
1.
z,
#187745840
1&
z'
#187746786
1'
z&
#187746906
1,
z.
#187757098
1)
z'
#187757099
10
z,
#187769056
12
z5
#187813088
1'
z)
#187813200
1,
z0
#187814802
15
z2
#187820769
12
z5
#190098398
14
z2
#190102005
12
z4
#190223607
15
z2
#190234484
12
z5
#190234574
1&
z'
#190234577
1.
z,
#190235520
1'
z&
#190235656
1,
z.
#190237239
15
z2
#190243201
12
z5
#191348397
13
z2
#191352093
12
z3
#192723616
15
z2
#192734493
12
z5
#192734581
1&
z'
#192734596
1.
z,
#192735527
1'
z&
#192735653
1,
z.
#192737248
15
z2
#192743210
12
z5
#193973614
15
z2
#193984425
12
z5
#193984565
1#
z'
#193984577
1-
z,
#193985495
1'
z#
#193985640
1,
z-
#193987218
15
z2
#193993174
12
z5
#195098432
14
z2
#195102025
13
z4
#195105721
12
z3
#195223611
15
z2
#195234488
12
z5
#195234577
1&
z'
#195234579
1.
z,
#195235523
1'
z&
#195235658
1,
z.
#195237243
15
z2
#195243205
12
z5
#197723617
15
z2
#197734494
12
z5
#197734577
1.
z,
#197734584
1&
z'
#197735530
1'
z&
#197735656
1,
z.
#197737249
15
z2
#197743211
12
z5
#198848407
13
z2
#198852103
12
z3
#200092259
1+
z,
#200095138
1/
z+
#200095876
1,
z/
#200098426
14
z2
#200102033
16
z4
#200102233
12
z6
#200223714
15
z2
#200234564
1-
z,
#200234576
1#
z'
#200235506
1'
z#
#200235638
1,
z-
#200245827
1.
z,
#200245832
1&
z'
#200246778
1'
z&
#200246906
1,
z.
#200258271
12
z5
#201221067
1!
z'
#201221805
1'
z!
#202598393
13
z2
#202602089
12
z3
#202723606
15
z2
#202734483
12
z5
#202734583
1&
z'
#202734595
1.
z,
#202735529
1'
z&
#202735652
1,
z.
#202737235
15
z2
#202743197
12
z5
#205098397
14
z2
#205102004
12
z4
#205223606
15
z2
