ovp_platform/platform_2_tlb/platform.vcd
$version
Imperas Tools
$end
$comment merged vcds for all cores $end
$timescale 8ns $end
$scope module platform $end
 $var wire 1 ! cpu0_uC/OS-II_Stat $end
 $var wire 1 " cpu0_uC/OS-II_Idle $end
 $var wire 1 # cpu0_AirbagModel $end
 $var wire 1 $ cpu0_FuelSensor $end
 $var wire 1 % cpu0_for_loop $end
 $var wire 1 & cpu0_CruiseControlSystem $end
 $var wire 1 ' cpu0_TransmissionControl $end
 $var wire 1 ( cpu0_None $end
 $var wire 1 ) cpu0_RadarTracker $end
 $var wire 1 * cpu1_None $end
 $var wire 1 + cpu1_CollisionAvoidance $end
 $var wire 1 , cpu1_uC/OS-II_Idle $end
 $var wire 1 - cpu1_AirbagModel $end
 $var wire 1 . cpu1_CruiseControlSystem $end
 $var wire 1 / cpu1_uC/OS-II_Stat $end
 $var wire 1 0 cpu1_RadarTracker $end
 $var wire 1 1 cpum_None $end
 $var wire 1 2 cpum_uC/OS-II_Idle $end
 $var wire 1 3 cpum_TractionControl $end
 $var wire 1 4 cpum_Derivative $end
 $var wire 1 5 cpum_dma $end
 $var wire 1 6 cpum_uC/OS-II_Stat $end
$upscope $end
$enddefinitions $end
#0
x#
x&
x"
x)
x%
x$
x'
x!
x(
x-
x/
x0
x+
x.
x,
x*
x4
x2
x6
x3
x5
x1
#112804
1-
z*
#113248
1.
z-
#113744
1+
z.
#114533
1#
z(
#114978
1&
z#
#115475
1$
z&
#116895
10
z+
#116989
1'
z$
#117289
15
z1
#117413
1/
z0
#117548
14
z5
#117968
1,
z/
#118472
1)
z'
#118984
1%
z)
#121126
13
z4
#124807
16
z3
#124997
12
z6
#223835
15
z2
#237059
1#
z%
#237080
1-
z,
#238048
1%
z#
#238125
1,
z-
#250824
1&
z%
#250832
1.
z,
#251742
1%
z&
#251894
1,
z.
#264589
1)
z%
#264592
10
z,
#275586
12
z5
#303730
1%
z)
#303873
1,
z0
#304693
15
z2
#310649
12
z5
#1970956
1'
z%
#1972667
1%
z'
#2723593
15
z2
#2734467
12
z5
#2734574
1&
z%
#2734585
1.
z,
#2735492
1%
z&
#2735647
1,
z.
#2737227
15
z2
#2743183
12
z5
#3845956
1'
z%
#3847667
1%
z'
#3848369
13
z2
#3852069
12
z3
#5098373
14
z2
#5101984
12
z4
#5223597
15
z2
#5234471
12
z5
#5234574
1&
z%
#5234577
1.
z,
#5235492
1%
z&
#5235639
1,
z.
#5237231
15
z2
#5243187
12
z5
#5720956
1'
z%
#5722667
1%
z'
#6473589
15
z2
#6484397
12
z5
#6484559
1#
z%
#6484562
1-
z,
#6485464
1%
z#
#6485633
1,
z-
#6487215
15
z2
#6493171
12
z5
#7595956
1'
z%
#7597667
1%
z'
#7598383
13
z2
#7602083
12
z3
#7723588
15
z2
#7734462
12
z5
#7734574
1&
z%
#7734577
1.
z,
#7735492
1%
z&
#7735639
1,
z.
#7737214
15
z2
#7743170
12
z5
#9470989
1$
z%
#9472697
1'
z$
#9474408
1%
z'
#10098382
14
z2
#10101993
12
z4
#10223606
15
z2
#10234480
12
z5
#10234574
1&
z%
#10234592
1.
z,
#10235492
1%
z&
#10235643
1,
z.
#10237211
15
z2
#10243167
12
z5
#11345956
1'
z%
#11347667
1%
z'
#11348379
13
z2
#11352079
12
z3
#12592153
1+
z,
#12595532
1,
z+
#12723719
15
z2
#12734559
1#
z%
#12734580
1-
z,
#12735464
1%
z#
#12735629
1,
z-
#12745824
1&
z%
#12745842
1.
z,
#12746742
1%
z&
#12746893
1,
z.
#12758236
12
z5
#13220956
1'
z%
#13222667
1%
z'
#15095956
1'
z%
#15097667
1%
z'
#15098402
14
z2
#15101999
13
z4
#15105699
12
z3
#15223599
15
z2
#15234473
12
z5
#15234574
1&
z%
#15234595
1.
z,
#15235492
1%
z&
#15235646
1,
z.
#15237211
15
z2
#15243167
12
z5
#16857387
1!
z%
#16857942
1"
z!
#16970972
1'
z"
#16972683
1"
z'
#17723591
15
z2
#17734465
12
z5
#17734577
1.
z,
#17734592
1&
z"
#17735510
1"
z&
#17735639
1,
z.
#17737225
15
z2
#17743181
12
z5
#18846017
1$
z"
#18847725
1'
z$
#18848369
13
z2
#18849436
1"
z'
#18852069
12
z3
#18973590
15
z2
#18984398
12
z5
#18984562
1-
z,
#18984563
1#
z"
#18985468
1"
z#
#18985633
1,
z-
#18987216
15
z2
#18993172
12
z5
#20098384
14
z2
#20101995
12
z4
#20223608
15
z2
#20234482
12
z5
#20234577
1.
z,
#20234581
1&
z"
#20235499
1"
z&
#20235639
1,
z.
#20237213
15
z2
#20243169
12
z5
#20720972
1'
z"
#20722683
1"
z'
#22595972
1'
z"
#22597683
1"
z'
#22598381
13
z2
#22602081
12
z3
#22723607
15
z2
#22734481
12
z5
#22734588
1&
z"
#22734591
1.
z,
#22735506
1"
z&
#22735642
1,
z.
#22737212
15
z2
#22743168
12
z5
#24470985
1'
z"
#24472696
1"
z'
#25092185
1+
z,
#25095564
1/
z+
#25096302
1,
z/
#25098413
14
z2
#25102024
16
z4
#25102224
12
z6
#25223833
15
z2
#25234567
1-
z,
#25234568
1#
z"
#25235473
1"
z#
#25235627
1,
z-
#25245828
1&
z"
#25245840
1.
z,
#25246746
1"
z&
#25246891
1,
z.
#25257089
1)
z"
#25257092
10
z,
#25269024
12
z5
#25296237
1"
z)
#25296373
1,
z0
#25297199
15
z2
#25303155
12
z5
#26345983
1'
z"
#26347694
1"
z'
#26348369
13
z2
#26352069
12
z3
#27723592
15
z2
#27734466
12
z5
#27734577
1.
z,
#27734586
1&
z"
#27735504
1"
z&
#27735639
1,
z.
#27737226
15
z2
#27743182
12
z5
#28221006
1$
z"
#28222714
1'
z$
#28224425
1"
z'
#30095972
1'
z"
#30097683
1"
z'
#30098402
14
z2
#30101999
13
z4
#30105699
12
z3
#30223596
15
z2
#30234470
12
z5
#30234586
1.
z,
#30234594
1&
z"
#30235512
1"
z&
#30235648
1,
z.
#30237230
15
z2
#30243186
12
z5
#31473588
15
z2
#31484396
12
z5
#31484559
1#
z"
#31484576
1-
z,
#31485464
1"
z#
#31485625
1,
z-
#31487214
15
z2
#31493170
12
z5
#31970984
1'
z"
#31972695
1"
z'
#32723601
15
z2
#32734475
12
z5
#32734582
1&
z"
#32734597
1.
z,
#32735500
1"
z&
#32735648
1,
z.
#32737211
15
z2
#32743167
12
z5
#33845974
1'
z"
#33847685
1"
z'
#33848374
13
z2
#33852074
12
z3
#35098381
14
z2
#35101992
12
z4
#35223605
15
z2
#35234479
12
z5
#35234577
1&
z"
1.
z,
#35235495
1"
z&
#35235639
1,
z.
#35237211
15
z2
#35243167
12
z5
#35595992
1%
z"
#35720964
1'
z%
#35722675
1%
z'
#37592145
1+
z,
#37595524
1,
z+
#37595997
1$
z%
#37597705
1'
z$
#37598378
13
z2
#37599416
1%
z'
#37602078
12
z3
#37723722
15
z2
#37734559
1#
z%
#37734572
1-
z,
#37735464
1%
z#
#37735632
1,
z-
#37745824
1&
z%
#37745845
1.
z,
#37746742
1%
z&
#37746896
1,
z.
#37758243
12
z5
#39470964
1'
z%
#39472675
1%
z'
#40098375
14
z2
#40101986
12
z4
#40223599
15
z2
#40234473
12
z5
#40234574
1&
z%
#40234577
1.
z,
#40235492
1%
z&
#40235639
1,
z.
#40237211
15
z2
#40243167
12
z5
#41345964
1'
z%
#41347675
1%
z'
#41348372
13
z2
#41352072
12
z3
#42723598
15
z2
#42734472
12
z5
#42734574
1&
z%
#42734585
1.
z,
#42735492
1%
z&
#42735647
1,
z.
#42737211
15
z2
#42743167
12
z5
#43220956
1'
z%
#43222667
1%
z'
#43973590
15
z2
#43984398
12
z5
#43984559
1#
z%
#43984575
1-
z,
#43985464
1%
z#
#43985635
1,
z-
#43987216
15
z2
#43993172
12
z5
#45095956
1'
z%
#45097667
1%
z'
#45098417
14
z2
#45102014
13
z4
#45105714
12
z3
#45223588
15
z2
#45234462
12
z5
#45234574
1&
z%
#45234578
1.
z,
#45235492
1%
z&
#45235640
1,
z.
#45237220
15
z2
#45243176
12
z5
#46970989
1$
z%
#46972697
1'
z$
#46974408
1%
z'
#47723607
15
z2
#47734481
12
z5
#47734574
1&
z%
#47734594
1.
z,
#47735492
1%
z&
#47735645
1,
z.
#47737212
15
z2
#47743168
12
z5
#48845956
1'
z%
#48847667
1%
z'
#48848380
13
z2
#48852080
12
z3
#50092188
1+
z,
#50095567
1/
z+
#50096305
1,
z/
#50098420
14
z2
#50102031
16
z4
#50102231
12
z6
#50223816
15
z2
#50234559
1#
z%
#50234570
1-
z,
#50235464
1%
z#
#50235630
1,
z-
#50245824
1&
z%
#50245843
1.
z,
#50246742
1%
z&
#50246894
1,
z.
#50257089
1)
z%
#50257093
10
z,
#50269007
12
z5
#50296230
1%
z)
#50296374
1,
z0
#50297206
15
z2
#50303162
12
z5
#50720956
1'
z%
#50722667
1%
z'
#52336414
1!
z%
#52337152
1"
z!
#52595972
1'
z"
#52597683
1"
z'
#52598373
13
z2
#52602073
12
z3
#52723599
15
z2
#52734473
12
z5
#52734577
1.
z,
#52734586
1&
z"
#52735504
1"
z&
#52735639
1,
z.
#52737211
15
z2
#52743167
12
z5
#54470983
1'
z"
#54472694
1"
z'
#55098372
14
z2
#55101983
12
z4
#55223596
15
z2
#55234470
12
z5
#55234581
1&
z"
#55234589
1.
z,
#55235499
1"
z&
#55235640
1,
z.
#55237230
15
z2
#55243186
12
z5
#56346006
1$
z"
#56347714
1'
z$
#56348369
13
z2
#56349425
1"
z'
#56352069
12
z3
#56473595
15
z2
#56484403
12
z5
#56484559
1#
z"
#56484568
1-
z,
#56487221
15
z2
