ovp_platform/platform_2_tlb/platform.vcd
$version
Imperas Tools
$end
$comment merged vcds for all cores $end
$timescale 8ns $end
$scope module platform $end
 $var wire 1 ! cpu0_uC/OS-II_Stat $end
 $var wire 1 " cpu0_TractionControl $end
 $var wire 1 # cpu0_uC/OS-II_Idle $end
 $var wire 1 $ cpu0_AirbagModel $end
 $var wire 1 % cpu0_FuelSensor $end
 $var wire 1 & cpu0_None $end
 $var wire 1 ' cpu0_CruiseControlSystem $end
 $var wire 1 ( cpu0_TransmissionControl $end
 $var wire 1 ) cpu1_TractionControl $end
 $var wire 1 * cpu1_None $end
 $var wire 1 + cpu1_CollisionAvoidance $end
 $var wire 1 , cpu1_uC/OS-II_Idle $end
 $var wire 1 - cpu1_AirbagModel $end
 $var wire 1 . cpu1_CruiseControlSystem $end
 $var wire 1 / cpu1_uC/OS-II_Stat $end
 $var wire 1 0 cpum_dma $end
 $var wire 1 1 cpum_uC/OS-II_Idle $end
 $var wire 1 2 cpum_None $end
 $var wire 1 3 cpum_Derivative $end
 $var wire 1 4 cpum_uC/OS-II_Stat $end
$upscope $end
$enddefinitions $end
#0
x"
x$
x%
x'
x(
x#
x!
x&
x,
x.
x)
x/
x+
x-
x*
x1
x4
x3
x0
x2
#112633
1-
z*
#113017
1.
z-
#113420
1)
z.
#113679
1$
z&
#113935
1+
z)
#114068
10
z2
#114127
1'
z$
#114327
13
z0
#114594
1"
z'
#115110
1%
z"
#117297
1/
z+
#117823
1(
z%
#117852
1,
z/
#118004
14
z3
#118194
11
z4
#120539
1!
z(
#121094
1#
z!
#1348774
10
z1
#1362059
1$
z#
#1362077
1-
z,
#1363052
1#
z$
#1363137
1,
z-
#1375836
1'
z#
#1375844
1.
z,
#1376769
1#
z'
#1376910
1,
z.
#1389603
1)
z,
#1389604
1"
z#
#1390519
1#
z"
#1390640
1,
z)
#1407043
11
z0
#18843439
1(
z#
#18846349
1#
z(
#26348554
10
z1
#26359416
11
z0
#26359577
1.
z,
#26359590
1'
z#
#26360523
1#
z'
#26360654
1,
z.
#26362286
10
z1
#26368236
11
z0
#37593446
1(
z#
#37596356
1#
z(
#38848559
10
z1
#38859448
11
z0
#38859600
1"
z#
#38859611
1)
z,
#38860515
1#
z"
#38860637
1,
z)
#38862268
10
z1
#38868218
11
z0
#50098341
13
z1
#50102037
11
z3
#51348547
10
z1
#51359409
11
z0
#51359579
1.
z,
#51359584
1'
z#
#51360517
1#
z'
#51360656
1,
z.
#51362302
10
z1
#51368252
11
z0
#56343430
1(
z#
#56346340
1#
z(
#63848552
10
z1
#63859348
11
z0
#63859562
1-
z,
#63859564
1$
z#
#63860473
1#
z$
#63860637
1,
z-
#63862299
10
z1
#63868249
11
z0
#75093430
1(
z#
#75096340
1#
z(
#76348663
10
z1
#76359577
1.
z,
#76359593
1'
z#
#76360526
1#
z'
#76360654
1,
z.
#76370839
1"
z#
#76370847
1)
z,
#76371754
1#
z"
#76371895
1,
z)
#76383369
11
z0
#93843469
1%
z#
#93846376
1(
z%
#93849286
1#
z(
#100098342
13
z1
#100102038
11
z3
#101348548
10
z1
#101359410
11
z0
#101359574
1'
z#
#101359595
1.
z,
#101360507
1#
z'
#101360661
1,
z.
#101362303
10
z1
#101368253
11
z0
#112593430
1(
z#
#112596340
1#
z(
#113848553
10
z1
#113859442
11
z0
#113859592
1)
z,
#113859608
1"
z#
#113860523
1#
z"
#113860640
1,
z)
#113862288
10
z1
#113868238
11
z0
#125092138
1+
z,
#125095694
1,
z+
#126348660
10
z1
#126359565
1-
z,
#126359577
1$
z#
#126360486
1#
z$
#126360629
1,
z-
#126370841
1'
z#
#126370842
1.
z,
#126371774
1#
z'
#126371908
1,
z.
#126383291
11
z0
#131343433
1(
z#
#131346343
1#
z(
#150093433
1(
z#
#150096343
1#
z(
#150098343
13
z1
#150102039
11
z3
#151348667
10
z1
#151359574
1'
z#
#151359579
1.
z,
#151360507
1#
z'
#151360656
1,
z.
#151370846
1"
z#
#151370855
1)
z,
#151371761
1#
z"
#151371892
1,
z)
#151383377
11
z0
#168843444
1(
z#
#168846354
1#
z(
#176348553
10
z1
#176359415
11
z0
#176359574
1'
z#
#176359592
1.
z,
#176360507
1#
z'
#176360658
1,
z.
#176362286
10
z1
#176368236
11
z0
#187593463
1%
z#
#187596370
1(
z%
#187599280
1#
z(
#188848672
10
z1
#188859559
1$
z#
#188859562
1-
z,
#188860468
1#
z$
#188860637
1,
z-
#188870839
1"
z#
#188870859
1)
z,
#188871754
1#
z"
#188871885
1,
z)
#188883312
11
z0
#200098329
13
z1
#200102025
11
z3
#201348564
10
z1
#201359426
11
z0
#201359574
1'
z#
#201359577
1.
z,
#201360507
1#
z'
#201360654
1,
z.
#201362290
10
z1
#201368240
11
z0
#206343441
1(
z#
#206346351
1#
z(
#225093441
1(
z#
#225096351
1#
z(
#226348668
10
z1
#226359577
1.
z,
#226359580
1'
z#
#226360513
1#
z'
#226360654
1,
z.
#226370851
1)
z,
#226370854
1"
z#
#226371769
1#
z"
#226371888
1,
z)
#226383374
11
z0
#243843430
1(
z#
#243846340
1#
z(
#250092180
1+
z,
#250093430
1!
z#
#250094168
1#
z!
#250095736
1/
z+
#250096474
1,
z/
#250098380
13
z1
#250102076
14
z3
#250102276
11
z4
#251348668
10
z1
#251359559
1$
z#
#251359562
1-
z,
#251360468
1#
z$
#251360637
1,
z-
#251370824
1'
z#
#251370827
1.
z,
#251371757
1#
z'
#251371904
1,
z.
#251383299
11
z0
#262593430
1(
z#
#262596340
1#
z(
#263848548
10
z1
#263859437
11
z0
#263859603
1)
z,
#263859606
1"
z#
#263860521
1#
z"
#263860640
1,
z)
#263862283
10
z1
#263868233
11
z0
#276348562
10
z1
#276359424
11
z0
#276359582
1.
z,
#276359590
1'
z#
#276360523
1#
z'
#276360659
1,
z.
#276362288
10
z1
#276368238
11
z0
#281343467
1%
z#
#281346374
1(
z%
#281349284
1#
z(
#300093445
1(
z#
#300096355
1#
z(
#300098327
13
z1
#300102023
11
z3
#301348673
10
z1
#301359582
1.
z,
#301359584
1'
z#
#301360517
1#
z'
#301360659
1,
z.
#301370858
1"
z#
1)
z,
#301371773
1#
z"
#301371895
1,
z)
#301383383
11
z0
#313848546
10
z1
#313859342
11
z0
#313859570
1-
z,
#313859575
1$
z#
#313860484
1#
z$
#313860634
1,
z-
#313862292
10
z1
#313868242
11
z0
#318843430
1(
z#
#318846340
1#
z(
#326348546
10
z1
#326359408
11
z0
#326359575
1'
z#
#326359577
1.
z,
#326360508
1#
z'
#326360654
1,
z.
#326362297
10
z1
#326368247
11
z0
#337593431
1(
z#
#337596341
1#
z(
#338848547
10
z1
#338859436
11
z0
#338859589
1"
z#
#338859610
1)
z,
#338860504
1#
z"
#338860636
1,
z)
#338862282
10
z1
#338868232
11
z0
#350098329
13
z1
#350102025
11
z3
#351348564
10
z1
#351359426
11
z0
#351359574
1'
z#
#351359578
1.
z,
#351360507
1#
z'
#351360655
1,
z.
#351362290
10
z1
#351368240
11
z0
#356343442
1(
z#
#356346352
1#
z(
#375092138
1+
z,
#375093475
1%
z#
#375095694
1,
z+
#375096382
1(
z%
#375099292
1#
z(
#376348782
10
z1
#376359564
1-
z,
#376359577
1$
z#
#376360486
1#
z$
#376360639
1,
z-
#376370827
1.
z,
#376370841
1'
z#
#376371774
1#
z'
#376371904
1,
z.
#376382089
1"
z#
#376382099
1)
z,
#376383004
1#
z"
#376383136
1,
z)
#376400684
11
z0
#393843432
1(
z#
#393846342
1#
z(
#400098344
13
z1
#400102040
11
z3
#401348550
10
z1
#401359412
11
z0
#401359583
1'
z#
#401359584
1.
z,
#401360516
1#
z'
#401360661
1,
z.
#401362305
10
z1
#401368255
11
z0
#412593439
1(
z#
#412596349
1#
z(
#413848555
10
z1
#413859444
11
z0
#413859592
1)
z,
#413859593
1"
z#
#413860508
1#
z"
#413860640
1,
z)
#413862268
10
z1
#413868218
11
z0
#426348546
10
z1
#426359470
11
z0
#426359577
1'
z#
#426359579
1.
z,
#426360510
1#
z'
#426360656
1,
z.
#426362299
10
z1
#426368249
11
z0
#431343450
1(
z#
#431346360
1#
z(
#438848549
10
z1
#438859345
11
z0
#438859559
1$
z#
#438859562
1-
z,
#438860468
1#
z$
#438860637
1,
z-
#438862296
10
z1
#438868246
11
z0
#450093447
1(
z#
#450098343
13
z1
