ovp_platform/platform_2_tlb/platform.vcd
$version
Imperas Tools
$end
$comment merged vcds for all cores $end
$timescale 8ns $end
$scope module platform $end
 $var wire 1 ! cpu0_uC/OS-II_Stat $end
 $var wire 1 " cpu0_TractionControl $end
 $var wire 1 # cpu0_uC/OS-II_Idle $end
 $var wire 1 $ cpu0_AirbagModel $end
 $var wire 1 % cpu0_FuelSensor $end
 $var wire 1 & cpu0_None $end
 $var wire 1 ' cpu0_CruiseControlSystem $end
 $var wire 1 ( cpu0_TransmissionControl $end
 $var wire 1 ) cpu1_TractionControl $end
 $var wire 1 * cpu1_None $end
 $var wire 1 + cpu1_CollisionAvoidance $end
 $var wire 1 , cpu1_uC/OS-II_Idle $end
 $var wire 1 - cpu1_AirbagModel $end
 $var wire 1 . cpu1_CruiseControlSystem $end
 $var wire 1 / cpu1_uC/OS-II_Stat $end
 $var wire 1 0 cpum_dma $end
 $var wire 1 1 cpum_uC/OS-II_Stat $end
 $var wire 1 2 cpum_None $end
 $var wire 1 3 cpum_Derivative $end
 $var wire 1 4 cpum_uC/OS-II_Idle $end
$upscope $end
$enddefinitions $end
#0
x!
x#
x(
x%
x$
x"
x'
x&
x+
x,
x.
x-
x)
x/
x*
x3
x1
x4
x0
x2
#112633
1-
z*
#113017
1.
z-
#113420
1)
z.
#113679
1$
z&
#113935
1+
z)
#114068
10
z2
#114127
1'
z$
#114327
13
z0
#114594
1"
z'
#115110
1%
z"
#117297
1/
z+
#117823
1(
z%
#117852
1,
z/
#118004
11
z3
#118194
14
z1
#120539
1!
z(
#121094
1#
z!
#223776
10
z4
#237059
1$
z#
#237080
1-
z,
#238052
1#
z$
#238129
1,
z-
#250836
1.
z,
#250839
1'
z#
#251772
1#
z'
#251913
1,
z.
#264606
1)
z,
#264607
1"
z#
#265522
1#
z"
#265643
1,
z)
#282135
14
z0
#1968430
1(
z#
#1971340
1#
z(
#2723562
10
z4
#2734436
14
z0
#2734574
1'
z#
#2734582
1.
z,
#2735507
1#
z'
#2735659
1,
z.
#2737300
10
z4
#2743256
14
z0
#3843449
1(
z#
#3846359
1#
z(
#3973557
10
z4
#3984458
14
z0
#3984592
1)
z,
#3984606
1"
z#
#3985521
1#
z"
#3985640
1,
z)
#3987275
10
z4
#3993231
14
z0
#5098327
13
z4
#5102023
14
z3
#5223564
10
z4
#5234438
14
z0
#5234579
1.
z,
#5234591
1'
z#
#5235524
1#
z'
#5235656
1,
z.
#5237302
10
z4
#5243258
14
z0
#5718447
1(
z#
#5721357
1#
z(
#6473559
10
z4
#6484367
14
z0
#6484562
1-
z,
#6484572
1$
z#
#6485481
1#
z$
#6485637
1,
z-
#6487289
10
z4
#6493245
14
z0
#7593431
1(
z#
#7596341
1#
z(
#7723660
10
z4
#7734574
1'
z#
#7734577
1.
z,
#7735507
1#
z'
#7735654
1,
z.
#7745847
1"
z#
#7745849
1)
z,
#7746762
1#
z"
#7746886
1,
z)
#7758402
14
z0
#9468463
1%
z#
#9471370
1(
z%
#9474280
1#
z(
#10098345
13
z4
#10102041
14
z3
#10223554
10
z4
#10234428
14
z0
#10234580
1'
z#
#10234588
1.
z,
#10235513
1#
z'
#10235654
1,
z.
#10237292
10
z4
#10243248
14
z0
#11343434
1(
z#
#11346344
1#
z(
#11473549
10
z4
#11484450
14
z0
#11484591
1"
z#
#11484612
1)
z,
#11485506
1#
z"
#11485638
1,
z)
#11487268
10
z4
#11493224
14
z0
#12592138
1+
z,
#12595694
1,
z+
#12723667
10
z4
#12734561
1$
z#
#12734567
1-
z,
#12735470
1#
z$
#12735631
1,
z-
#12745825
1'
z#
#12745844
1.
z,
#12746758
1#
z'
#12746910
1,
z.
#12758334
14
z0
#13218430
1(
z#
#13221340
1#
z(
#15093445
1(
z#
#15096355
1#
z(
#15098335
13
z4
#15102031
14
z3
#15223664
10
z4
#15234583
1.
z,
#15234587
1'
z#
#15235520
1#
z'
#15235660
1,
z.
#15245839
1"
z#
#15245859
1)
z,
#15246754
1#
z"
#15246885
1,
z)
#15258410
14
z0
#16968443
1(
z#
#16971353
1#
z(
#17723557
10
z4
#17734431
14
z0
#17734583
1'
z#
#17734587
1.
z,
#17735516
1#
z'
#17735653
1,
z.
#17737295
10
z4
#17743251
14
z0
#18843470
1%
z#
#18846377
1(
z%
#18849287
1#
z(
#18973666
10
z4
#18984575
1$
z#
#18984581
1-
z,
#18985484
1#
z$
#18985634
1,
z-
#18995854
1"
z#
#18995862
1)
z,
#18996769
1#
z"
#18996888
1,
z)
#19008342
14
z0
#20098328
13
z4
#20102024
14
z3
#20223566
10
z4
#20234440
14
z0
#20234579
1.
z,
#20234587
1'
z#
#20235520
1#
z'
#20235656
1,
z.
#20237304
10
z4
#20243260
14
z0
#20718443
1(
z#
#20721353
1#
z(
#22593430
1(
z#
#22596340
1#
z(
#22723661
10
z4
#22734574
1'
z#
#22734581
1.
z,
#22735507
1#
z'
#22735658
1,
z.
#22745846
1"
z#
#22745857
1)
z,
#22746761
1#
z"
#22746894
1,
z)
#22758403
14
z0
#24468430
1(
z#
#24471340
1#
z(
#25092185
1+
z,
#25093448
1!
z#
#25094186
1#
z!
#25095741
1/
z+
#25096479
1,
z/
#25098379
13
z4
#25102075
11
z3
#25102275
14
z1
#25223670
10
z4
#25234570
1-
z,
#25234578
1$
z#
#25235487
1#
z$
#25235634
1,
z-
#25245842
1'
z#
#25245847
1.
z,
#25246775
1#
z'
#25246913
1,
z.
#25258337
14
z0
#26343444
1(
z#
#26346354
1#
z(
#26473558
10
z4
#26484459
14
z0
#26484592
1)
z,
#26484601
1"
z#
#26485516
1#
z"
#26485640
1,
z)
#26487276
10
z4
#26493232
14
z0
#27723562
10
z4
#27734436
14
z0
#27734581
1.
z,
#27734586
1'
z#
#27735519
1#
z'
#27735658
1,
z.
#27737300
10
z4
#27743256
14
z0
#28218475
1%
z#
#28221382
1(
z%
#28224292
1#
z(
#30093440
1(
z#
#30096350
1#
z(
#30098337
13
z4
#30102033
14
z3
#30223664
10
z4
#30234582
1'
z#
#30234583
1.
z,
#30235515
1#
z'
#30235660
1,
z.
#30245856
1"
z#
#30245859
1)
z,
#30246771
1#
z"
#30246885
1,
z)
#30258410
14
z0
#31473546
10
z4
#31484354
14
z0
#31484562
1-
z,
#31484574
1$
z#
#31485483
1#
z$
#31485637
1,
z-
#31487303
10
z4
#31493259
14
z0
#31968435
1(
z#
#31971345
1#
z(
#32723560
10
z4
#32734434
14
z0
#32734575
1'
z#
#32734579
1.
z,
#32735508
1#
z'
#32735656
1,
z.
#32737298
10
z4
#32743254
14
z0
#33843430
1(
z#
#33846340
1#
z(
#33973555
10
z4
#33984456
14
z0
#33984589
1"
z#
#33984592
1)
z,
#33985504
1#
z"
#33985640
1,
z)
#33987273
10
z4
#33993229
14
z0
#35098327
13
z4
#35102023
14
z3
#35223562
10
z4
#35234436
14
z0
#35234574
1'
z#
#35234577
1.
z,
#35235507
1#
z'
#35235654
1,
z.
#35237300
10
z4
#35243256
14
z0
#35718430
1(
z#
#35721340
1#
z(
#37592138
1+
z,
#37593476
1%
z#
#37595694
1,
z+
#37596383
1(
z%
#37599293
1#
z(
#37723774
10
z4
#37734559
1$
z#
#37734564
1-
z,
#37735468
1#
z$
#37735639
1,
z-
#37745824
1'
z#
#37745827
1.
z,
#37746757
1#
z'
#37746904
1,
z.
#37757090
1"
z#
#37757099
1)
z,
#37758005
1#
z"
#39468449
1(
z#
