ovp_platform/platform_2_tlb/platform.vcd
$version
Imperas Tools
$end
$comment merged vcds for all cores $end
$timescale 8ns $end
$scope module platform $end
 $var wire 1 ! cpu0_5_for_loop_100000_0 $end
 $var wire 1 " cpu0_7_uC/OS-II_Idle $end
 $var wire 1 # cpu0_0_None $end
 $var wire 1 $ cpu0_6_uC/OS-II_Stat $end
 $var wire 1 % cpu0_4_for_loop_50000_50000 $end
 $var wire 1 & cpu1_4_uC/OS-II_Stat $end
 $var wire 1 ' cpu1_3_for_loop_100000_0 $end
 $var wire 1 ( cpu1_0_None $end
 $var wire 1 ) cpu1_5_uC/OS-II_Idle $end
 $var wire 1 * cpum_3_dma $end
 $var wire 1 + cpum_0_None $end
 $var wire 1 , cpum_5_uC/OS-II_Idle $end
 $var wire 1 - cpum_4_uC/OS-II_Stat $end
$upscope $end
$enddefinitions $end
#0
x!
x"
x%
x$
x#
x)
x&
x'
x(
x,
x*
x-
x+
#109633
1'
z(
#110130
1&
z'
#110512
1%
z#
#110685
1)
z&
#1206313
1!
z%
#1206797
1$
z!
#1207352
1"
z$
#2997996
1*
z+
#2998263
1-
z*
#2998453
1,
z-
#3098513
1*
z,
#3114405
1,
z*
#3114571
1'
z)
#3114579
1!
z"
#4723208
1)
z'
#4723957
1"
z!
#4724686
1*
z,
#4739369
1,
z*
#4739583
1!
z"
#4739588
1'
z)
#6348221
1)
z'
#6348957
1"
z!
#6349757
1*
z,
#6355890
1,
z*
#8592141
1%
z"
#10144961
1"
z%
#10598501
1*
z,
#10612073
1!
z"
#10612090
1'
z)
#10612137
1,
z*
#12220723
1)
z'
#12221447
1"
z!
#12222274
1*
z,
#12229172
1,
z*
#17592140
1%
z"
#18098511
1*
z,
#18112072
1'
z)
#18112147
1,
z*
#18473512
1!
z%
#19720705
1)
z'
#20082234
1"
z!
#20083524
1*
z,
#20089657
1,
z*
#25090832
1&
z)
#25091570
1)
z&
#25598504
1*
z,
#25612078
1!
z"
#25612079
1'
z)
#25612140
1,
z*
#25967181
1%
z!
#27220712
1)
z'
#27348964
1!
z%
#27973305
1-
z,
#27973505
1,
z-
#28603715
1$
z!
#28604493
1"
z$
#28604758
1*
z,
#28610891
1,
z*
#33098520
1*
z,
#33112085
1!
z"
#33112090
1'
z)
#33112156
1,
z*
#34721459
1"
z!
#34722264
1*
z,
