code_gen/doc/thesis/vcd/sim1.vcd
$version
Imperas Tools
$end
$comment merged vcds for all cores $end
$timescale 8ns $end
$scope module platform $end
 $var wire 1 ! cpu0_T0 $end
 $var wire 1 " cpu0_7_uC/OS-II_Idle $end
 $var wire 1 # cpu0_0_None $end
 $var wire 1 $ cpu0_6_uC/OS-II_Stat $end
 $var wire 1 % cpu0_T1 $end
 $var wire 1 & cpu1_4_uC/OS-II_Stat $end
 $var wire 1 ' cpu1_T0 $end
 $var wire 1 ( cpu1_0_None $end
 $var wire 1 ) cpu1_5_uC/OS-II_Idle $end
 $var wire 1 * cpum_dma $end
 $var wire 1 + cpum_0_None $end
 $var wire 1 , cpum_5_uC/OS-II_Idle $end
 $var wire 1 - cpum_4_uC/OS-II_Stat $end
$upscope $end
$enddefinitions $end
#0
x!
x"
x%
x$
x#
x)
x&
x'
x(
x*
x-
x,
x+
#109633
1'
z(
#110130
1&
z'
#110512
1%
z#
#110685
1)
z&
#1206313
1!
z%
#1206797
1$
z!
#1207352
1"
z$
#1555283
1*
z+
#1555550
1-
z*
#1555740
1,
z-
#1598501
1*
z,
#1614393
1,
z*
#1614567
1!
z"
#1614571
1'
z)
#3223208
1)
z'
#3223945
1"
z!
#3224772
1*
z,
#3230905
1,
z*
#4842125
1%
z"
#5348503
1*
z,
#5362073
1'
z)
#5362139
1,
z*
#6395400
1!
z%
#6970706
1)
z'
#8004774
1"
z!
#8006007
1*
z,
#8012140
1,
z*
#9098519
1*
z,
#9112067
1!
z"
#9112071
1'
z)
#9112155
1,
z*
#10092181
1%
z!
#10720704
1)
z'
#10974238
1!
z%
#11604058
1"
z!
#11604766
1*
z,
#11610899
1,
z*
#12848502
1*
z,
#12862067
1!
z"
#12862086
1'
z)
#12862138
1,
z*
#14470719
1)
z'
#14471441
1"
z!
#14472275
1*
z,
#14479173
1,
z*
#14717123
1%
z"
#16097173
1"
z%
#16598511
1*
z,
#16612071
1!
z"
#16612078
1'
z)
#16612147
1,
z*
#18220711
1)
z'
#18221445
1"
z!
#18222257
1*
z,
#18229155
1,
z*
#19842123
1%
z"
#20348520
1*
z,
#20362071
1'
z)
#20362156
1,
z*
#20759997
1!
z%
#21970704
1)
z'
#22369371
1"
z!
#22371016
1*
z,
#22377149
1,
z*
#24098516
1*
z,
#24112075
1!
z"
#24112091
1'
z)
#24112152
1,
z*
#24467181
1%
z!
#25618740
1!
z%
#25720717
1&
z'
#25721495
1)
z&
#26473288
1-
z,
#26473488
1,
z-
#26873553
1$
z!
#26874331
1"
z$
#26874770
1*
z,
#26880903
1,
z*
#27848501
1*
z,
#27862076
1!
z"
#27862089
1'
z)
#27862137
1,
z*
#29342181
1%
z!
#29470722
1)
z'
#30174724
1!
z%
#30304553
1"
z!
#30306007
1*
z,
#30312140
1,
z*
#31598502
1*
z,
#31612067
1!
z"
#31612081
1'
z)
#31612138
1,
z*
#33220714
1)
z'
#33221441
1"
z!
#33222275
1*
z,
#33229173
1,
z*
#33842139
1%
z"
#34666466
1"
z%
#35348511
1*
z,
#35362067
1!
z"
#35362073
1'
z)
#35362147
1,
z*
#36970706
1)
z'
#36971441
1"
z!
#36972257
1*
z,
#36979155
1,
z*
#38342138
1%
z"
#39098520
1*
z,
#39112071
1'
z)
#39112156
1,
z*
#39341580
1!
z%
#40720704
1)
z'
#40950794
1"
z!
#40952264
1*
z,
#40958397
1,
z*
#42848508
1*
z,
#42862076
1!
z"
#42862086
1'
z)
#42862144
1,
z*
#42967181
1%
z!
#44176484
1!
z%
#44470719
1)
z'
#45681313
1"
z!
#45682257
1*
z,
#45688390
1,
z*
#46598501
1*
z,
#46612078
1'
z)
#46612084
1!
z"
#46612137
1,
z*
#47842181
1%
z!
#48220711
1)
z'
#48809640
1!
z%
#49189477
1"
z!
#49191021
1*
z,
#49197154
1,
z*
#50348511
1*
z,
#50362071
1'
z)
#50362077
1!
z"
#50362147
1,
z*
#51473291
1-
z,
#51473491
1,
z-
#51970657
1&
z'
#51971435
1)
z&
#51971476
1$
z!
#51972254
1"
z$
#51972271
1*
z,
#51979169
1,
z*
#52467123
1%
z"
#53971489
1"
z%
#54098507
1*
z,
#54112067
1!
z"
#54112086
1'
z)
#54112143
1,
z*
#55720719
1)
z'
#55721441
1"
z!
#55722257
1*
z,
#55729155
1,
z*
#57717133
1%
z"
#57848516
1*
z,
#57862078
1'
z)
#57862152
1,
z*
#59072932
1!
z%
#59470711
1)
z'
#60682306
1"
z!
#60683508
1*
z,
#60689641
1,
z*
#61598507
1*
z,
#61612067
1!
z"
#61612071
1'
z)
#61612143
1,
z*
#62717181
1%
z!
#63220704
1)
z'
#63599014
1!
z%
#64103834
1"
z!
#64104757
1*
z,
#64110890
1,
z*
#65348519
1*
z,
#65362067
1!
z"
#65362091
1'
z)
#65362155
1,
z*
#66970724
1)
z'
#66971441
1"
z!
#66972263
1*
z,
#66979161
1,
z*
#67342138
1%
z"
#68440953
1"
z%
#69098501
1*
z,
#69112078
1!
z"
#69112083
1'
z)
#69112137
1,
z*
#70720716
1)
z'
#70721452
1"
z!
#70722272
1*
z,
#70729170
1,
z*
#72092123
1%
z"
#72848508
1*
z,
#72862075
1'
z)
#72862144
1,
z*
#72962713
1!
z%
#74470708
1)
z'
#74572087
1"
z!
#74573507
1*
z,
#74579640
1,
z*
#76473302
1-
z,
#76473502
1,
z-
#76592143
1%
z"
#76598508
1*
z,
#76612071
1'
z)
#76612144
1,
z*
#78209959
1!
z%
#78220657
1&
z'
#78221435
1)
z&
#79819229
1$
z!
#79819767
1*
z,
#79820007
1"
z$
#79825900
1,
z*
#80348511
1*
z,
#80362083
1!
z"
1'
z)
#80362147
1,
z*
#81842181
1%
z!
#81970716
1)
z'
#83408349
1!
z%
#83538185
1"
z!
#83539757
1*
z,
#83545890
1,
z*
#84098514
1*
z,
#84112075
1'
z)
#84112085
1!
z"
#84112150
1,
z*
#85720708
1)
z'
#85721459
1"
z!
#85722258
1*
z,
#85729156
1,
z*
#87092127
1%
z"
#87848501
1*
z,
#87862071
1'
z)
#87862137
1,
z*
#88138681
1!
z%
#89470704
1)
z'
#89748055
1"
z!
#89749757
1*
z,
#89755890
1,
z*
#91598515
1*
z,
#91612068
1!
z"
#91612088
1'
z)
#91612151
1,
z*
#91842181
1%
z!
#92884824
1!
z%
#93220721
1)
z'
#94264645
1"
z!
#94266017
1*
z,
#94272150
1,
z*
#95348502
1*
z,
#95362078
1!
z"
#95362080
1'
z)
#95362138
1,
z*
#96592181
1%
z!
#96970713
1)
z'
#97741644
1!
z%
#98121475
1"
z!
#98122275
1*
z,
#98128408
1,
z*
#99098501
1*
z,
#99112072
1'
z)
#99112073
1!
z"
#99112137
1,
z*
#100720705
1)
z'
#100721447
1"
z!
#100722266
1*
z,
#100729164
1,
z*
#101467141
1%
z"
#101473302
1-
z,
#101473502
1,
z-
#102848518
1*
z,
#102862071
1'
z)
#102862154
1,
z*
#102977536
1!
z%
#104470657
1&
z'
#104471435
1)
z&
#104586258
1"
z!
#104587262
1*
z,
#104593395
1,
z*
#104717127
1$
z"
#104717865
1"
z$
#106598502
1*
z,
#106612080
1'
z)
#106612085
1!
z"
#106612138
1,
z*
#106717181
1%
z!
#108035617
1!
z%
#108220713
1)
z'
#109540455
1"
z!
#109541012
1*
z,
#109547145
1,
z*
#110348501
1*
z,
#110362071
1!
z"
#110362072
1'
z)
#110362202
1,
z*
#111717181
1%
z!
#111970705
1)
z'
#113229269
1!
z%
#113484093
1"
z!
#113484764
1*
z,
#113490897
1,
z*
#114098507
1*
z,
#114112071
1'
z)
#114112078
1!
z"
#114112143
1,
z*
#115720704
1)
z'
#115721452
1"
z!
#115722257
1*
z,
#115729155
1,
z*
#116967131
1%
z"
#117848516
1*
z,
#117862085
1'
z)
#117862152
1,
z*
#117967841
1!
z%
#119470718
1)
z'
#119576563
1"
z!
#119577257
1*
z,
#119583390
1,
z*
#121598501
1*
z,
#121612077
1'
z)
#121612080
1!
z"
#121612137
1,
z*
#121717181
1%
z!
#123141425
1!
z%
#123220710
1)
z'
#124646258
1"
z!
#124647257
1*
z,
#124653390
1,
z*
#125348501
1*
z,
#125362071
1'
z)
#125362077
1!
z"
#125362137
1,
z*
#126473302
1-
z,
#126473502
1,
z-
#126842181
1%
z!
#126970704
1)
z'
#128316525
1!
z%
#128446355
1"
z!
#128447257
1*
z,
#128453390
1,
z*
#129098508
1*
z,
#129112068
1!
z"
#129112084
1'
z)
#129112144
1,
z*
#130720670
1&
z'
#130721411
1$
z!
#130721448
1)
z&
#130722189
1"
z$
#130722257
1*
z,
#130729155
1,
z*
#131967132
1%
z"
#132819923
1"
z%
#132848517
1*
z,
#132862071
1'
z)
#132862072
1!
z"
#132862153
1,
z*
#134470704
1)
z'
#134471446
1"
z!
#134472261
1*
z,
#134479159
1,
z*
#136467123
1%
z"
#136598501
1*
z,
#136612071
1'
z)
#136612137
1,
z*
#137962410
1!
z%
#138220704
1)
z'
#139571784
1"
z!
#139573516
1*
z,
#139579649
1,
z*
#140348521
1*
z,
#140362074
1!
z"
#140362084
1'
z)
#140362157
1,
z*
#141592181
1%
z!
#141970717
1)
z'
#142558644
1!
z%
#142938471
1"
z!
#142939767
1*
z,
#142945900
1,
z*
#144098504
1*
z,
#144112076
1'
z)
#144112086
1!
z"
#144112140
1,
z*
#145720709
1)
z'
#145721460
1"
z!
#145722277
1*
z,
#145729175
1,
z*
#146217123
1%
z"
#147626867
1"
z%
#147848513
1*
z,
#147862067
1!
z"
#147862071
1'
z)
#147862149
1,
z*
#149470704
1)
z'
#149471441
1"
z!
#149472257
1*
z,
#149479155
1,
z*
#151342123
1%
z"
#151473303
1-
z,
#151473503
1,
z-
#151598509
1*
z,
#151612089
1'
z)
#151612145
1,
z*
#152422981
1!
z%
#153220722
1)
z'
#154032355
1"
z!
#154033517
1*
z,
#154039650
1,
z*
#155348517
1*
z,
#155362072
1!
z"
#155362081
1'
z)
#155362153
1,
z*
#156092173
1%
z!
#156970667
1&
z'
#156971445
1)
z&
#157056052
1!
z%
#157935838
1$
z!
#157936616
1"
z$
#157937269
1*
z,
#157943402
1,
z*
#159098501
1*
z,
#159112071
1'
z)
#159112076
1!
z"
#159112137
1,
z*
#160717181
1%
z!
#160720704
1)
z'
#162272181
1!
z%
#162277010
1"
z!
#162278521
1*
z,
#162284654
1,
z*
#162848503
1*
z,
#162862075
1!
z"
#162862089
1'
z)
#162862139
1,
z*
#164470722
1)
z'
#164471449
1"
z!
#164472276
1*
z,
#164479174
1,
z*
#165967135
1%
z"
#166598512
1*
z,
#166612081
1'
z)
#166612148
1,
z*
#167481374
1!
z%
#168220714
1)
z'
#169090096
1"
z!
#169091027
1*
z,
#169097160
1,
z*
#170348520
1*
z,
#170362073
1'
z)
#170362078
1!
z"
#170362156
1,
z*
#171217181
1%
z!
#171970706
1)
z'
#172804533
1!
z%
#173559364
1"
z!
#173561021
1*
z,
#173567154
1,
z*
#174098501
1*
z,
#174112067
1!
z"
#174112071
1'
z)
#174112137
1,
z*
#175720704
1)
z'
#175721441
1"
z!
#175722267
1*
z,
#175729165
1,
z*
#176467133
1%
z"
#176473303
1-
z,
#176473503
1,
z-
#177430044
1"
z%
#177848519
1*
z,
#177862067
1!
z"
#177862086
1'
z)
#177862155
1,
z*
#179470719
1)
z'
#179471441
1"
z!
#179472263
1*
z,
#179479161
1,
z*
#181092123
1%
z"
#181598501
1*
z,
#181612078
1'
z)
#181612137
1,
z*
#182579938
1!
z%
#183220664
1&
z'
#183221442
1)
z&
#184189265
1$
z!
#184190043
1"
z$
#184191021
1*
z,
#184197154
1,
z*
#185348511
1*
z,
#185362071
1'
z)
#185362073
1!
z"
#185362147
1,
z*
#186217181
1%
z!
#186970704
1)
z'
#187376932
1!
z%
#188131758
1"
z!
#188133507
1*
z,
#188139640
1,
z*
#189098502
1*
z,
#189112067
1!
z"
#189112086
1'
z)
#189112138
1,
z*
#190720719
1)
z'
#190721441
1"
z!
#190722275
1*
z,
#190729173
1,
z*
#191092133
1%
z"
#192362905
1"
z%
#192848511
1*
z,
#192862067
1!
z"
#192862078
1'
z)
#192862147
1,
z*
#194470711
1)
z'
#194471441
1"
z!
#194472257
1*
z,
#194479155
1,
z*
#196092140
1%
z"
#196598520
1*
z,
#196612071
1'
z)
#196612156
1,
z*
#197524579
1!
z%
#198220704
1)
z'
#199133953
1"
z!
#199134757
1*
z,
#199140890
1,
z*
#200348503
1*
z,
#200362067
1!
z"
#200362091
1'
z)
#200362139
1,
z*
#201217181
1%
z!
#201473287
1-
z,
#201473487
1,
z-
#201970724
1)
z'
#202736617
1!
z%
#203491437
1"
z!
#203492261
1*
z,
#203498394
1,
z*
#204098501
1*
z,
#204112077
1!
z"
#204112083
1'
z)
#204112137
1,
z*
#205720716
1)
z'
#205721451
1"
z!
#205722266
1*
z,
#205729164
1,
z*
#206467123
1%
z"
#207442222
1"
z%
#207848502
1*
z,
#207862075
1'
z)
#207862086
1!
z"
#207862138
1,
z*
#209470661
1&
z'
#209471439
1)
z&
#209471469
1$
z!
#209472247
1"
z$
#209472275
1*
z,
#209479173
1,
z*
#211092128
1%
z"
#211598511
1*
z,
#211612091
1'
z)
#211612147
1,
z*
#211987154
1!
z%
#213220724
1)
z'
#213596528
1"
z!
#213597270
1*
z,
#213604168
1,
z*
#215348503
1*
z,
#215362083
1'
z)
#215362087
1!
z"
#215362139
1,
z*
#215717181
1%
z!
#216780404
1!
z%
#216970716
1)
z'
#218035244
1"
z!
#218036015
1*
z,
#218042148
1,
z*
#219098519
1*
z,
#219112075
1'
z)
#219112087
1!
z"
#219112220
1,
z*
#220467181
1%
z!
#220720708
1)
z'
#221843861
1!
z%
#222098701
1"
z!
#222099776
1*
z,
#222105909
1,
z*
#222848501
1*
z,
#222862071
1'
z)
#222862086
1!
z"
#222862137
1,
z*
#224470704
1)
z'
#224471460
1"
z!
#224472269
1*
z,
#224479167
1,
z*
#225592123
1%
z"
#226473286
1-
z,
#226473486
1,
z-
#226553734
1"
z%
#226598521
1*
z,
#226612067
1!
z"
#226612088
1'
z)
#226612157
1,
z*
#228220721
1)
z'
#228221441
1"
z!
#228222265
1*
z,
#228229163
1,
z*
#230217137
1%
z"
#230348501
1*
z,
#230362080
1'
z)
#230362137
1,
z*
#231418559
1!
z%
#231970713
1)
z'
#233027933
1"
z!
#233028507
1*
z,
#233034640
1,
z*
#234098517
1*
z,
#234112072
1'
z)
#234112084
1!
z"
#234112153
1,
z*
#235092173
1%
z!
#235720658
1&
z'
#235721436
1)
z&
#236253500
1!
z%
#236883298
1$
z!
#236884076
1"
z$
#236884760
1*
z,
#236890893
1,
z*
#237848508
1*
z,
