code_gen/doc/thesis/vcd/sim2.vcd
$version
Imperas Tools
$end
$comment merged vcds for all cores $end
$timescale 8ns $end
$scope module platform $end
 $var wire 1 ! cpu0_T0 $end
 $var wire 1 " cpu0_7_uC/OS-II_Idle $end
 $var wire 1 # cpu0_0_None $end
 $var wire 1 $ cpu0_6_uC/OS-II_Stat $end
 $var wire 1 % cpu0_T1 $end
 $var wire 1 & cpu1_4_uC/OS-II_Stat $end
 $var wire 1 ' cpu1_T0 $end
 $var wire 1 ( cpu1_0_None $end
 $var wire 1 ) cpu1_5_uC/OS-II_Idle $end
 $var wire 1 * cpum_dma $end
 $var wire 1 + cpum_0_None $end
 $var wire 1 , cpum_5_uC/OS-II_Idle $end
 $var wire 1 - cpum_4_uC/OS-II_Stat $end
$upscope $end
$enddefinitions $end
#0
x!
x"
x%
x$
x#
x)
x&
x'
x(
x*
x-
x,
x+
#109633
1'
z(
#110130
1&
z'
#110512
1%
z#
#110685
1)
z&
#1206313
1!
z%
#1206797
1$
z!
#1207352
1"
z$
#1555283
1*
z+
#1555550
1-
z*
#1555740
1,
z-
#1598501
1*
z,
#1614393
1,
z*
#1614567
1!
z"
#1614571
1'
z)
#3223208
1)
z'
#3223945
1"
z!
#3224772
1*
z,
#3230905
1,
z*
#4842125
1%
z"
#5348503
1*
z,
#5362073
1'
z)
#5362139
1,
z*
#5979806
1!
z%
#6970706
1)
z'
#7588432
1"
z!
#7589761
1*
z,
#7595894
1,
z*
#9098503
1*
z,
#9112071
1'
z)
#9112086
1!
z"
#9112139
1,
z*
#10720704
1)
z'
#10721356
1"
z!
#10722276
1*
z,
#10729174
1,
z*
#12848512
1*
z,
#12862067
1!
z"
#12862086
1'
z)
#12862148
1,
z*
#14470719
1)
z'
#14471337
1"
z!
#14472257
1*
z,
#14479155
1,
z*
#16598521
1*
z,
#16612073
1!
z"
#16612078
1'
z)
#16612157
1,
z*
#18220711
1)
z'
#18221343
1"
z!
#18222265
1*
z,
#18229163
1,
z*
#20348501
1*
z,
#20362071
1'
z)
#20362081
1!
z"
#20362137
1,
z*
#21970704
1)
z'
#21971351
1"
z!
#21972274
1*
z,
#21979172
1,
z*
#24098510
1*
z,
#24112067
1!
z"
#24112091
1'
z)
#24112146
1,
z*
#25720717
1&
z'
#25722257
1*
z,
