code_gen/doc/thesis/vcd/simtmr.vcd
$version
Imperas Tools
$end
$comment merged vcds for all cores $end
$timescale 8ns $end
$scope module platform $end
 $var wire 1 ! cpu0_5_uC/OS-II_Idle $end
 $var wire 1 " cpu0_0_None $end
 $var wire 1 # cpu0_T0 $end
 $var wire 1 $ cpu0_4_uC/OS-II_Stat $end
 $var wire 1 % cpu1_4_uC/OS-II_Stat $end
 $var wire 1 & cpu1_T0 $end
 $var wire 1 ' cpu1_0_None $end
 $var wire 1 ( cpu1_5_uC/OS-II_Idle $end
 $var wire 1 ) cpu2_T1 $end
 $var wire 1 * cpu2_6_uC/OS-II_Stat $end
 $var wire 1 + cpu2_T0 $end
 $var wire 1 , cpu2_0_None $end
 $var wire 1 - cpu2_7_uC/OS-II_Idle $end
 $var wire 1 . cpu3_T1 $end
 $var wire 1 / cpu3_5_uC/OS-II_Idle $end
 $var wire 1 0 cpu3_0_None $end
 $var wire 1 1 cpu3_4_uC/OS-II_Stat $end
 $var wire 1 2 cpum_dma $end
 $var wire 1 3 cpum_0_None $end
 $var wire 1 4 cpum_5_uC/OS-II_Idle $end
 $var wire 1 5 cpum_4_uC/OS-II_Stat $end
$upscope $end
$enddefinitions $end
#0
x!
x$
x#
x"
x&
x%
x(
x'
x*
x)
x-
x+
x,
x.
x/
x1
x0
x4
x2
x5
x3
#112247
1.
z0
#112249
1&
z'
#112254
1#
z"
#112744
11
z.
#112764
1%
z&
#112769
1$
z#
#113223
1)
z,
#113299
1/
z1
#113319
1(
z%
#113324
1!
z$
#113664
1+
z)
#114166
1*
z+
#114721
1-
z*
#3722714
12
z3
#3722981
15
z2
#3723171
14
z5
#3724880
12
z4
#3740826
1.
z/
#3740827
1)
z-
#3764339
14
z2
#3764584
1#
z!
#3764586
1&
z(
#4730385
1!
z#
#4730387
1(
z&
#4867218
1/
z.
#4868046
1+
z)
#4869783
12
z4
#4875937
14
z2
#5833511
1-
z+
#5834871
12
z4
#5841010
14
z2
#9974781
12
z4
#9994583
1#
z!
#9994586
1&
z(
#9994603
1+
z-
#9995140
14
z2
#10959770
1!
z#
#10959773
1(
z&
#10960028
1-
z+
#10961121
12
z4
#10967260
14
z2
#13099773
12
z4
#13113321
1)
z-
1.
z/
#13113566
14
z2
#14239709
1/
z.
#14240015
1-
z)
#14241018
12
z4
#14247172
14
z2
#16224771
12
z4
#16244586
1&
z(
#16244594
1+
z-
#16244602
1#
z!
#16245148
14
z2
#17209773
1(
z&
#17209789
1!
z#
#17210019
1-
z+
#17211107
12
z4
#17217246
14
z2
#22474884
12
z4
#22488321
1.
z/
#22488327
1)
z-
#22508338
1#
z!
#22508349
1&
z(
#22508834
14
z2
#23474135
1!
z#
#23474146
1(
z&
#23614709
1/
z.
#23615502
1+
z)
#23617269
12
z4
#23623423
14
z2
#24580967
1-
z+
#24582357
12
z4
#24588496
14
z2
#25090831
1%
z(
#25090836
11
z/
#25090842
1$
z!
#25090881
1*
z-
#25091569
1(
z%
#25091574
1/
z1
#25091580
1!
z$
#25091619
1-
z*
#28599555
15
z4
#28599755
14
z5
#28724777
12
z4
#28744586
1&
z(
1+
z-
#28744593
1#
z!
#28745136
14
z2
#29709773
1(
z&
#29709780
1!
z#
#29710011
1-
z+
#29711117
12
z4
#29717256
14
z2
#31849769
12
z4
#31863321
1.
z/
#31863322
1)
z-
#31863562
14
z2
#32989709
1/
z.
#32990016
1-
z)
#32991015
12
z4
#32997169
14
z2
#34974767
12
z4
#34994583
1#
z!
#34994598
1+
z-
#34994602
1&
z(
#34995144
14
z2
#35959770
1!
z#
#35959789
1(
z&
#35960023
1-
z+
#35961125
12
z4
#35967264
14
z2
#41224880
12
z4
#41238327
1.
z/
#41238331
1)
z-
#41258342
1&
z(
#41258348
1#
z!
#41258830
14
z2
#42224139
1(
z&
#42224145
1!
z#
#42364715
1/
z.
#42365506
1+
z)
#42367265
12
z4
#42373419
14
z2
#43330971
1-
z+
#43332357
12
z4
#43338496
14
z2
#47474786
12
z4
#47494582
1#
z!
#47494586
1+
z-
#47494605
1&
z(
#47495145
14
z2
#48459769
1!
z#
#48459792
1(
z&
#48460011
1-
z+
#48461126
12
z4
#48467265
14
z2
#50090833
11
z/
#50090840
1%
z(
#50090842
1$
z!
#50090868
1*
z-
#50091571
1/
z1
#50091578
1(
z%
#50091580
1!
z$
#50091606
1-
z*
#50599778
12
z4
#50613326
1)
z-
#50613329
1.
z/
#50613571
14
z2
#51739717
1/
z.
#51740020
1-
z)
#51741023
12
z4
#51747177
14
z2
#53599549
15
z4
#53599749
14
z5
#53724767
12
z4
#53744593
1#
z!
#53744595
1&
z(
#53744602
1+
z-
#53745144
14
z2
#54709780
1!
z#
#54709782
1(
z&
#54710027
1-
z+
#54711121
12
z4
#54717260
14
z2
#59974880
12
z4
#59988335
1)
z-
1.
z/
#60008332
1#
z!
#60008336
1&
z(
#60008830
14
z2
#60974129
1!
z#
#60974133
1(
z&
#61114723
1/
z.
#61115510
1+
z)
#61117265
12
z4
#61123419
14
z2
#62080975
1-
z+
#62082357
12
z4
#62088496
14
z2
#66224782
12
z4
#66244588
1#
z!
#66244590
1+
z-
#66244598
1&
z(
#66245141
14
z2
#67209775
1!
z#
#67209785
1(
z&
#67210015
1-
z+
#67211122
12
z4
#67217261
14
z2
#69349774
12
z4
#69363334
1)
z-
#69363341
1.
z/
#69363567
14
z2
#70490028
1-
z)
#70491019
12
z4
#70497173
14
z2
#72474772
12
z4
#72494582
1#
z!
#72494586
1+
z-
#72494592
1&
z(
#72495149
14
z2
#73461107
12
z4
